EDI_CPOPT_20170201_1
TableName	Actflag	Created	Changed	CpoptID	secid	ISIN	CallPut	FromDate	ToDate	NoticeFrom	NoticeTo	Currency	Price	MandatoryOptional	MinNoticeDays	MaxNoticeDays	cptype	PriceAsPercent	InWholePart	FormulaBasedPrice
CPOPT	U	2017/01/27	2017/02/01	9947351	5031541	US46625HRY89	C	2017/08/01	2027/01/31			USD		O	15	30	US		B	Y
CPOPT	U	2017/01/27	2017/02/01	9947352	5031541	US46625HRY89	C	2027/02/01				USD	2000.00000	O	15	30	EU	100.000000000	B	N
CPOPT	U	2017/01/30	2017/02/01	9948942	4576145	US78669PAA03	C	2015/08/12	2019/08/10			USD		O	30	60	US		B	Y
CPOPT	U	2017/01/30	2017/02/01	9949264	5031541	US46625HRY89	C	2027/11/01	2028/01/31			USD	2000.00000	O	15	30	US	100.000000000	B	N
CPOPT	U	2017/01/30	2017/02/01	9949427	5030675	US40054KUH75	C	2018/01/27				USD	1000.00000	O	10		BM	100.000000000	W	N
CPOPT	U	2017/01/30	2017/02/01	9949432	5030675	US40054KUH75	C	2018/04/27				USD	1000.00000	O	10		BM	100.000000000	W	N
CPOPT	U	2017/01/30	2017/02/01	9949433	5030675	US40054KUH75	C	2018/07/27				USD	1000.00000	O	10		BM	100.000000000	W	N
CPOPT	U	2017/01/30	2017/02/01	9949434	5030675	US40054KUH75	C	2018/10/27				USD	1000.00000	O	10		BM	100.000000000	W	N
CPOPT	U	2017/01/30	2017/02/01	9949435	5030675	US40054KUH75	C	2019/01/27				USD	1000.00000	O	10		BM	100.000000000	W	N
CPOPT	U	2017/01/30	2017/02/01	9949436	5030675	US40054KUH75	C	2019/04/27				USD	1000.00000	O	10		BM	100.000000000	W	N
CPOPT	U	2017/01/30	2017/02/01	9949441	5030675	US40054KUH75	C	2019/07/27				USD	1000.00000	O	10		BM	100.000000000	W	N
CPOPT	U	2017/01/30	2017/02/01	9949448	5030675	US40054KUH75	C	2019/10/27				USD	1000.00000	O	10		BM	100.000000000	W	N
CPOPT	U	2017/01/30	2017/02/01	9949452	5030675	US40054KUH75	C	2020/01/27				USD	1000.00000	O	10		BM	100.000000000	W	N
CPOPT	U	2017/01/30	2017/02/01	9949453	5030675	US40054KUH75	C	2020/04/27				USD	1000.00000	O	10		BM	100.000000000	W	N
CPOPT	U	2017/01/30	2017/02/01	9949454	5030675	US40054KUH75	C	2020/07/27				USD	1000.00000	O	10		BM	100.000000000	W	N
CPOPT	U	2017/01/30	2017/02/01	9949455	5030675	US40054KUH75	C	2020/10/27				USD	1000.00000	O	10		BM	100.000000000	W	N
CPOPT	U	2017/01/30	2017/02/01	9949456	5030675	US40054KUH75	C	2021/01/27				USD	1000.00000	O	10		BM	100.000000000	W	N
CPOPT	U	2017/01/30	2017/02/01	9949457	5030675	US40054KUH75	C	2021/04/27				USD	1000.00000	O	10		BM	100.000000000	W	N
CPOPT	U	2017/01/30	2017/02/01	9949458	5030675	US40054KUH75	C	2021/07/27				USD	1000.00000	O	10		BM	100.000000000	W	N
CPOPT	U	2017/01/30	2017/02/01	9949459	5030675	US40054KUH75	C	2021/10/27				USD	1000.00000	O	10		BM	100.000000000	W	N
CPOPT	U	2017/01/31	2017/02/01	9950779	5034088	US22822VAE11	C	2017/02/03	2026/11/30			USD		O	30	60	US		B	Y
CPOPT	U	2017/01/31	2017/02/01	9950780	5034088	US22822VAE11	C	2026/12/01	2027/02/28			USD	2000.00000	O	30	60	US	100.000000000	B	N
CPOPT	U	2017/01/31	2017/02/01	9951037	5034190	US594918BV54	C	2017/02/07	2020/02/05			USD		O	30	60	US		B	Y
CPOPT	I	2017/02/01	2017/02/01	9951170	5031832	US3136G4LC59	C	2017/07/31				USD	1000.00000	O	10		BM	100.000000000	B	N
CPOPT	I	2017/02/01	2017/02/01	9951171	5031832	US3136G4LC59	C	2017/10/31				USD	1000.00000	O	10		BM	100.000000000	B	N
CPOPT	I	2017/02/01	2017/02/01	9951172	5031832	US3136G4LC59	C	2018/01/31				USD	1000.00000	O	10		BM	100.000000000	B	N
CPOPT	I	2017/02/01	2017/02/01	9951173	5031832	US3136G4LC59	C	2018/04/30				USD	1000.00000	O	10		BM	100.000000000	B	N
CPOPT	I	2017/02/01	2017/02/01	9951174	5031832	US3136G4LC59	C	2018/07/31				USD	1000.00000	O	10		BM	100.000000000	B	N
CPOPT	I	2017/02/01	2017/02/01	9951175	5031832	US3136G4LC59	C	2018/10/31				USD	1000.00000	O	10		BM	100.000000000	B	N
CPOPT	I	2017/02/01	2017/02/01	9951176	5031832	US3136G4LC59	C	2019/01/31				USD	1000.00000	O	10		BM	100.000000000	B	N
CPOPT	I	2017/02/01	2017/02/01	9951177	5031832	US3136G4LC59	C	2019/04/30				USD	1000.00000	O	10		BM	100.000000000	B	N
CPOPT	I	2017/02/01	2017/02/01	9951178	5031832	US3136G4LC59	C	2019/07/31				USD	1000.00000	O	10		BM	100.000000000	B	N
CPOPT	I	2017/02/01	2017/02/01	9951179	5031832	US3136G4LC59	C	2019/10/31				USD	1000.00000	O	10		BM	100.000000000	B	N
CPOPT	I	2017/02/01	2017/02/01	9951180	5031832	US3136G4LC59	C	2020/01/31				USD	1000.00000	O	10		BM	100.000000000	B	N
CPOPT	I	2017/02/01	2017/02/01	9951181	5031832	US3136G4LC59	C	2020/04/30				USD	1000.00000	O	10		BM	100.000000000	B	N
CPOPT	I	2017/02/01	2017/02/01	9951182	5031832	US3136G4LC59	C	2020/07/31				USD	1000.00000	O	10		BM	100.000000000	B	N
CPOPT	I	2017/02/01	2017/02/01	9951183	5031832	US3136G4LC59	C	2020/10/31				USD	1000.00000	O	10		BM	100.000000000	B	N
CPOPT	I	2017/02/01	2017/02/01	9951184	5031832	US3136G4LC59	C	2021/01/31				USD	1000.00000	O	10		BM	100.000000000	B	N
CPOPT	I	2017/02/01	2017/02/01	9951185	5031832	US3136G4LC59	C	2021/04/30				USD	1000.00000	O	10		BM	100.000000000	B	N
CPOPT	I	2017/02/01	2017/02/01	9951186	5031832	US3136G4LC59	C	2021/07/31				USD	1000.00000	O	10		BM	100.000000000	B	N
CPOPT	I	2017/02/01	2017/02/01	9951187	5031832	US3136G4LC59	C	2021/10/31				USD	1000.00000	O	10		BM	100.000000000	B	N
CPOPT	I	2017/02/01	2017/02/01	9951188	4899775	US06741VBC54	C	2016/12/12				USD	1000.00000	O			BM	100.000000000	W	N
CPOPT	I	2017/02/01	2017/02/01	9951189	4899775	US06741VBC54	C	2017/03/12				USD	1000.00000	O			BM	100.000000000	W	N
CPOPT	I	2017/02/01	2017/02/01	9951190	4899775	US06741VBC54	C	2017/06/12				USD	1000.00000	O			BM	100.000000000	W	N
CPOPT	I	2017/02/01	2017/02/01	9951191	4899775	US06741VBC54	C	2017/09/12				USD	1000.00000	O			BM	100.000000000	W	N
CPOPT	I	2017/02/01	2017/02/01	9951195	5034749	US3134GA2Q62	C	2017/11/27				USD	1000.00000	O	5	60	EU	100.000000000	B	N
CPOPT	I	2017/02/01	2017/02/01	9951220	5034136	US3134GA2P89	C	2017/11/27				USD	1000.00000	O	5	60	EU	100.000000000	W	N
CPOPT	I	2017/02/01	2017/02/01	9951221	5034081	US3134GA2R46	C	2017/08/22				USD	1000.00000	O	5	60	BM	100.000000000	B	N
CPOPT	I	2017/02/01	2017/02/01	9951222	5034081	US3134GA2R46	C	2017/11/22				USD	1000.00000	O	5	60	BM	100.000000000	B	N
CPOPT	I	2017/02/01	2017/02/01	9951223	5034081	US3134GA2R46	C	2018/02/22				USD	1000.00000	O	5	60	BM	100.000000000	B	N
CPOPT	I	2017/02/01	2017/02/01	9951224	5034081	US3134GA2R46	C	2018/05/22				USD	1000.00000	O	5	60	BM	100.000000000	B	N
CPOPT	I	2017/02/01	2017/02/01	9951225	5034081	US3134GA2R46	C	2018/08/22				USD	1000.00000	O	5	60	BM	100.000000000	B	N
CPOPT	I	2017/02/01	2017/02/01	9951226	5034081	US3134GA2R46	C	2018/11/22				USD	1000.00000	O	5	60	BM	100.000000000	B	N
CPOPT	I	2017/02/01	2017/02/01	9951227	5034081	US3134GA2R46	C	2019/02/22				USD	1000.00000	O	5	60	BM	100.000000000	B	N
CPOPT	I	2017/02/01	2017/02/01	9951228	5034081	US3134GA2R46	C	2019/05/22				USD	1000.00000	O	5	60	BM	100.000000000	B	N
CPOPT	I	2017/02/01	2017/02/01	9951229	5034081	US3134GA2R46	C	2019/08/22				USD	1000.00000	O	5	60	BM	100.000000000	B	N
CPOPT	I	2017/02/01	2017/02/01	9951230	5034084	US3134GA2T02	C	2018/02/15				USD	1000.00000	O	5	60	EU	100.000000000	B	N
CPOPT	I	2017/02/01	2017/02/01	9951233	5034936	US39120VRA43	C	2012/02/24				USD		O			BM	100.000000000		N
CPOPT	I	2017/02/01	2017/02/01	9951234	5034936	US39120VRA43	C	2012/03/24				USD		O			BM	100.000000000		N
CPOPT	I	2017/02/01	2017/02/01	9951235	5034936	US39120VRA43	C	2012/04/24				USD		O			BM	100.000000000		N
CPOPT	I	2017/02/01	2017/02/01	9951236	5034936	US39120VRA43	C	2012/05/24				USD		O			BM	100.000000000		N
CPOPT	I	2017/02/01	2017/02/01	9951237	5034936	US39120VRA43	C	2012/06/24				USD		O			BM	100.000000000		N
CPOPT	I	2017/02/01	2017/02/01	9951238	5034936	US39120VRA43	C	2012/07/24				USD		O			BM	100.000000000		N
CPOPT	I	2017/02/01	2017/02/01	9951239	5034936	US39120VRA43	C	2012/08/24				USD		O			BM	100.000000000		N
CPOPT	I	2017/02/01	2017/02/01	9951240	5034936	US39120VRA43	C	2012/09/24				USD		O			BM	100.000000000		N
CPOPT	I	2017/02/01	2017/02/01	9951241	5034936	US39120VRA43	C	2012/10/24				USD		O			BM	100.000000000		N
CPOPT	I	2017/02/01	2017/02/01	9951242	5034936	US39120VRA43	C	2012/11/24				USD		O			BM	100.000000000		N
CPOPT	I	2017/02/01	2017/02/01	9951243	5034936	US39120VRA43	C	2012/12/24				USD		O			BM	100.000000000		N
CPOPT	I	2017/02/01	2017/02/01	9951244	5034936	US39120VRA43	C	2013/01/24				USD		O			BM	100.000000000		N
CPOPT	I	2017/02/01	2017/02/01	9951245	5034936	US39120VRA43	C	2013/02/24				USD		O			BM	100.000000000		N
CPOPT	I	2017/02/01	2017/02/01	9951246	5034936	US39120VRA43	C	2013/03/24				USD		O			BM	100.000000000		N
CPOPT	I	2017/02/01	2017/02/01	9951247	5034936	US39120VRA43	C	2013/04/24				USD		O			BM	100.000000000		N
CPOPT	I	2017/02/01	2017/02/01	9951248	5034936	US39120VRA43	C	2013/05/24				USD		O			BM	100.000000000		N
CPOPT	I	2017/02/01	2017/02/01	9951249	5034936	US39120VRA43	C	2013/06/24				USD		O			BM	100.000000000		N
CPOPT	I	2017/02/01	2017/02/01	9951250	5034936	US39120VRA43	C	2013/07/24				USD		O			BM	100.000000000		N
CPOPT	I	2017/02/01	2017/02/01	9951251	5034936	US39120VRA43	C	2013/08/24				USD		O			BM	100.000000000		N
CPOPT	I	2017/02/01	2017/02/01	9951252	5034936	US39120VRA43	C	2013/09/24				USD		O			BM	100.000000000		N
CPOPT	I	2017/02/01	2017/02/01	9951253	5034936	US39120VRA43	C	2013/10/24				USD		O			BM	100.000000000		N
CPOPT	I	2017/02/01	2017/02/01	9951254	5034936	US39120VRA43	C	2013/11/24				USD		O			BM	100.000000000		N
CPOPT	I	2017/02/01	2017/02/01	9951255	5034936	US39120VRA43	C	2013/12/24				USD		O			BM	100.000000000		N
CPOPT	I	2017/02/01	2017/02/01	9951256	5034936	US39120VRA43	C	2014/01/24				USD		O			BM	100.000000000		N
CPOPT	I	2017/02/01	2017/02/01	9951257	5034936	US39120VRA43	C	2014/02/24				USD		O			BM	100.000000000		N
CPOPT	I	2017/02/01	2017/02/01	9951258	5034936	US39120VRA43	C	2014/03/24				USD		O			BM	100.000000000		N
CPOPT	I	2017/02/01	2017/02/01	9951259	5034936	US39120VRA43	C	2014/04/24				USD		O			BM	100.000000000		N
CPOPT	I	2017/02/01	2017/02/01	9951260	5034936	US39120VRA43	C	2014/05/24				USD		O			BM	100.000000000		N
CPOPT	I	2017/02/01	2017/02/01	9951261	5034936	US39120VRA43	C	2014/06/24				USD		O			BM	100.000000000		N
CPOPT	I	2017/02/01	2017/02/01	9951262	5034936	US39120VRA43	C	2014/07/24				USD		O			BM	100.000000000		N
CPOPT	I	2017/02/01	2017/02/01	9951263	5034936	US39120VRA43	C	2014/08/24				USD		O			BM	100.000000000		N
CPOPT	I	2017/02/01	2017/02/01	9951264	5034936	US39120VRA43	C	2014/09/24				USD		O			BM	100.000000000		N
CPOPT	I	2017/02/01	2017/02/01	9951265	5034936	US39120VRA43	C	2014/10/24				USD		O			BM	100.000000000		N
CPOPT	I	2017/02/01	2017/02/01	9951266	5034936	US39120VRA43	C	2014/11/24				USD		O			BM	100.000000000		N
CPOPT	I	2017/02/01	2017/02/01	9951267	5034936	US39120VRA43	C	2014/12/24				USD		O			BM	100.000000000		N
CPOPT	I	2017/02/01	2017/02/01	9951268	5034936	US39120VRA43	C	2015/01/24				USD		O			BM	100.000000000		N
CPOPT	I	2017/02/01	2017/02/01	9951269	5034936	US39120VRA43	C	2015/02/24				USD		O			BM	100.000000000		N
CPOPT	I	2017/02/01	2017/02/01	9951270	5034936	US39120VRA43	C	2015/03/24				USD		O			BM	100.000000000		N
CPOPT	I	2017/02/01	2017/02/01	9951271	5034936	US39120VRA43	C	2015/04/24				USD		O			BM	100.000000000		N
CPOPT	I	2017/02/01	2017/02/01	9951272	5034936	US39120VRA43	C	2015/05/24				USD		O			BM	100.000000000		N
CPOPT	I	2017/02/01	2017/02/01	9951273	5034936	US39120VRA43	C	2015/06/24				USD		O			BM	100.000000000		N
CPOPT	I	2017/02/01	2017/02/01	9951274	5034936	US39120VRA43	C	2015/07/24				USD		O			BM	100.000000000		N
CPOPT	I	2017/02/01	2017/02/01	9951275	5034936	US39120VRA43	C	2015/08/24				USD		O			BM	100.000000000		N
CPOPT	I	2017/02/01	2017/02/01	9951276	5034936	US39120VRA43	C	2015/09/24				USD		O			BM	100.000000000		N
CPOPT	I	2017/02/01	2017/02/01	9951277	5034936	US39120VRA43	C	2015/10/24				USD		O			BM	100.000000000		N
CPOPT	I	2017/02/01	2017/02/01	9951278	5034936	US39120VRA43	C	2015/11/24				USD		O			BM	100.000000000		N
CPOPT	I	2017/02/01	2017/02/01	9951279	5034936	US39120VRA43	C	2015/12/24				USD		O			BM	100.000000000		N
CPOPT	I	2017/02/01	2017/02/01	9951280	5034936	US39120VRA43	C	2016/01/24				USD		O			BM	100.000000000		N
CPOPT	I	2017/02/01	2017/02/01	9951281	5034936	US39120VRA43	C	2016/02/24				USD		O			BM	100.000000000		N
CPOPT	I	2017/02/01	2017/02/01	9951282	5034936	US39120VRA43	C	2016/03/24				USD		O			BM	100.000000000		N
CPOPT	I	2017/02/01	2017/02/01	9951283	5034936	US39120VRA43	C	2016/04/24				USD		O			BM	100.000000000		N
CPOPT	I	2017/02/01	2017/02/01	9951284	5034936	US39120VRA43	C	2016/05/24				USD		O			BM	100.000000000		N
CPOPT	I	2017/02/01	2017/02/01	9951285	5034936	US39120VRA43	C	2016/06/24				USD		O			BM	100.000000000		N
CPOPT	I	2017/02/01	2017/02/01	9951286	5034936	US39120VRA43	C	2016/07/24				USD		O			BM	100.000000000		N
CPOPT	I	2017/02/01	2017/02/01	9951287	5034936	US39120VRA43	C	2016/08/24				USD		O			BM	100.000000000		N
CPOPT	I	2017/02/01	2017/02/01	9951288	5034936	US39120VRA43	C	2016/09/24				USD		O			BM	100.000000000		N
CPOPT	I	2017/02/01	2017/02/01	9951289	5034936	US39120VRA43	C	2016/10/24				USD		O			BM	100.000000000		N
CPOPT	I	2017/02/01	2017/02/01	9951290	5034936	US39120VRA43	C	2016/11/24				USD		O			BM	100.000000000		N
CPOPT	I	2017/02/01	2017/02/01	9951291	5034936	US39120VRA43	C	2016/12/24				USD		O			BM	100.000000000		N
CPOPT	I	2017/02/01	2017/02/01	9951292	5034936	US39120VRA43	C	2017/01/24				USD		O			BM	100.000000000		N
CPOPT	I	2017/02/01	2017/02/01	9951296	5035052	US41456TNS41	C	2012/04/29				USD		O			BM	100.000000000		N
CPOPT	I	2017/02/01	2017/02/01	9951297	5035052	US41456TNS41	C	2012/07/29				USD		O			BM	100.000000000		N
CPOPT	I	2017/02/01	2017/02/01	9951298	5035052	US41456TNS41	C	2012/10/29				USD		O			BM	100.000000000		N
CPOPT	I	2017/02/01	2017/02/01	9951299	5035052	US41456TNS41	C	2013/01/29				USD		O			BM	100.000000000		N
CPOPT	I	2017/02/01	2017/02/01	9951300	5035052	US41456TNS41	C	2013/04/29				USD		O			BM	100.000000000		N
CPOPT	I	2017/02/01	2017/02/01	9951301	5035052	US41456TNS41	C	2013/07/29				USD		O			BM	100.000000000		N
CPOPT	I	2017/02/01	2017/02/01	9951302	5035052	US41456TNS41	C	2013/10/29				USD		O			BM	100.000000000		N
CPOPT	I	2017/02/01	2017/02/01	9951303	5035052	US41456TNS41	C	2014/01/29				USD		O			BM	100.000000000		N
CPOPT	I	2017/02/01	2017/02/01	9951304	5035052	US41456TNS41	C	2014/04/29				USD		O			BM	100.000000000		N
CPOPT	I	2017/02/01	2017/02/01	9951305	5035052	US41456TNS41	C	2014/07/29				USD		O			BM	100.000000000		N
CPOPT	I	2017/02/01	2017/02/01	9951306	5035052	US41456TNS41	C	2014/10/29				USD		O			BM	100.000000000		N
CPOPT	I	2017/02/01	2017/02/01	9951307	5035052	US41456TNS41	C	2015/01/29				USD		O			BM	100.000000000		N
CPOPT	I	2017/02/01	2017/02/01	9951308	5035052	US41456TNS41	C	2015/04/29				USD		O			BM	100.000000000		N
CPOPT	I	2017/02/01	2017/02/01	9951309	5035052	US41456TNS41	C	2015/07/29				USD		O			BM	100.000000000		N
CPOPT	I	2017/02/01	2017/02/01	9951310	5035052	US41456TNS41	C	2015/10/29				USD		O			BM	100.000000000		N
CPOPT	I	2017/02/01	2017/02/01	9951311	5035052	US41456TNS41	C	2016/01/29				USD		O			BM	100.000000000		N
CPOPT	I	2017/02/01	2017/02/01	9951312	5035052	US41456TNS41	C	2016/04/29				USD		O			BM	100.000000000		N
CPOPT	I	2017/02/01	2017/02/01	9951313	5035052	US41456TNS41	C	2016/07/29				USD		O			BM	100.000000000		N
CPOPT	I	2017/02/01	2017/02/01	9951314	5035052	US41456TNS41	C	2016/10/29				USD		O			BM	100.000000000		N
CPOPT	I	2017/02/01	2017/02/01	9951315	5035052	US41456TNS41	C	2017/01/29				USD		O			BM	100.000000000		N
CPOPT	I	2017/02/01	2017/02/01	9951316	5035052	US41456TNS41	C	2017/04/29				USD		O			BM	100.000000000		N
CPOPT	I	2017/02/01	2017/02/01	9951317	5035052	US41456TNS41	C	2017/07/29				USD		O			BM	100.000000000		N
CPOPT	I	2017/02/01	2017/02/01	9951318	5035052	US41456TNS41	C	2017/10/29				USD		O			BM	100.000000000		N
CPOPT	I	2017/02/01	2017/02/01	9951319	5035052	US41456TNS41	C	2018/01/29				USD		O			BM	100.000000000		N
CPOPT	I	2017/02/01	2017/02/01	9951320	5035052	US41456TNS41	C	2018/04/29				USD		O			BM	100.000000000		N
CPOPT	I	2017/02/01	2017/02/01	9951321	5035052	US41456TNS41	C	2018/07/29				USD		O			BM	100.000000000		N
CPOPT	I	2017/02/01	2017/02/01	9951322	5035052	US41456TNS41	C	2018/10/29				USD		O			BM	100.000000000		N
CPOPT	I	2017/02/01	2017/02/01	9951323	5035052	US41456TNS41	C	2019/01/29				USD		O			BM	100.000000000		N
CPOPT	I	2017/02/01	2017/02/01	9951324	5035052	US41456TNS41	C	2019/04/29				USD		O			BM	100.000000000		N
CPOPT	I	2017/02/01	2017/02/01	9951325	5035052	US41456TNS41	C	2019/07/29				USD		O			BM	100.000000000		N
CPOPT	I	2017/02/01	2017/02/01	9951326	5035052	US41456TNS41	C	2019/10/29				USD		O			BM	100.000000000		N
CPOPT	I	2017/02/01	2017/02/01	9951327	5035052	US41456TNS41	C	2020/01/29				USD		O			BM	100.000000000		N
CPOPT	I	2017/02/01	2017/02/01	9951328	5035052	US41456TNS41	C	2020/04/29				USD		O			BM	100.000000000		N
CPOPT	I	2017/02/01	2017/02/01	9951329	5035052	US41456TNS41	C	2020/07/29				USD		O			BM	100.000000000		N
CPOPT	I	2017/02/01	2017/02/01	9951330	5035052	US41456TNS41	C	2020/10/29				USD		O			BM	100.000000000		N
CPOPT	I	2017/02/01	2017/02/01	9951331	5035052	US41456TNS41	C	2021/01/29				USD		O			BM	100.000000000		N
CPOPT	I	2017/02/01	2017/02/01	9951332	5035052	US41456TNS41	C	2021/04/29				USD		O			BM	100.000000000		N
CPOPT	I	2017/02/01	2017/02/01	9951333	5035052	US41456TNS41	C	2021/07/29				USD		O			BM	100.000000000		N
CPOPT	I	2017/02/01	2017/02/01	9951334	5035052	US41456TNS41	C	2021/10/29				USD		O			BM	100.000000000		N
CPOPT	I	2017/02/01	2017/02/01	9951335	5035052	US41456TNS41	C	2022/01/29				USD		O			BM	100.000000000		N
CPOPT	I	2017/02/01	2017/02/01	9951336	5035052	US41456TNS41	C	2022/04/29				USD		O			BM	100.000000000		N
CPOPT	I	2017/02/01	2017/02/01	9951337	5035052	US41456TNS41	C	2022/07/29				USD		O			BM	100.000000000		N
CPOPT	I	2017/02/01	2017/02/01	9951338	5035052	US41456TNS41	C	2022/10/29				USD		O			BM	100.000000000		N
CPOPT	I	2017/02/01	2017/02/01	9951339	5035052	US41456TNS41	C	2023/01/29				USD		O			BM	100.000000000		N
CPOPT	I	2017/02/01	2017/02/01	9951340	5035052	US41456TNS41	C	2023/04/29				USD		O			BM	100.000000000		N
CPOPT	I	2017/02/01	2017/02/01	9951341	5035052	US41456TNS41	C	2023/07/29				USD		O			BM	100.000000000		N
CPOPT	I	2017/02/01	2017/02/01	9951342	5035052	US41456TNS41	C	2023/10/29				USD		O			BM	100.000000000		N
CPOPT	I	2017/02/01	2017/02/01	9951343	5035052	US41456TNS41	C	2024/01/29				USD		O			BM	100.000000000		N
CPOPT	I	2017/02/01	2017/02/01	9951344	5035052	US41456TNS41	C	2024/04/29				USD		O			BM	100.000000000		N
CPOPT	I	2017/02/01	2017/02/01	9951345	5035052	US41456TNS41	C	2024/07/29				USD		O			BM	100.000000000		N
CPOPT	I	2017/02/01	2017/02/01	9951346	5035052	US41456TNS41	C	2024/10/29				USD		O			BM	100.000000000		N
CPOPT	I	2017/02/01	2017/02/01	9951347	5035052	US41456TNS41	C	2025/01/29				USD		O			BM	100.000000000		N
CPOPT	I	2017/02/01	2017/02/01	9951348	5035052	US41456TNS41	C	2025/04/29				USD		O			BM	100.000000000		N
CPOPT	I	2017/02/01	2017/02/01	9951349	5035052	US41456TNS41	C	2025/07/29				USD		O			BM	100.000000000		N
CPOPT	I	2017/02/01	2017/02/01	9951350	5035052	US41456TNS41	C	2025/10/29				USD		O			BM	100.000000000		N
CPOPT	I	2017/02/01	2017/02/01	9951351	5035052	US41456TNS41	C	2026/01/29				USD		O			BM	100.000000000		N
CPOPT	I	2017/02/01	2017/02/01	9951353	5035089	US41456TNY19	C	2012/05/17				USD		O			BM	100.000000000		N
CPOPT	I	2017/02/01	2017/02/01	9951354	5035089	US41456TNY19	C	2012/11/17				USD		O			BM	100.000000000		N
CPOPT	I	2017/02/01	2017/02/01	9951355	5035089	US41456TNY19	C	2013/05/17				USD		O			BM	100.000000000		N
CPOPT	I	2017/02/01	2017/02/01	9951356	5035089	US41456TNY19	C	2013/11/17				USD		O			BM	100.000000000		N
CPOPT	I	2017/02/01	2017/02/01	9951357	5035089	US41456TNY19	C	2014/05/17				USD		O			BM	100.000000000		N
CPOPT	I	2017/02/01	2017/02/01	9951358	5035089	US41456TNY19	C	2014/11/17				USD		O			BM	100.000000000		N
CPOPT	I	2017/02/01	2017/02/01	9951359	5035089	US41456TNY19	C	2015/05/17				USD		O			BM	100.000000000		N
CPOPT	I	2017/02/01	2017/02/01	9951360	5035089	US41456TNY19	C	2015/11/17				USD		O			BM	100.000000000		N
CPOPT	I	2017/02/01	2017/02/01	9951361	5035089	US41456TNY19	C	2016/05/17				USD		O			BM	100.000000000		N
CPOPT	I	2017/02/01	2017/02/01	9951362	5035089	US41456TNY19	C	2016/11/17				USD		O			BM	100.000000000		N
CPOPT	I	2017/02/01	2017/02/01	9951363	5035089	US41456TNY19	C	2017/05/17				USD		O			BM	100.000000000		N
CPOPT	I	2017/02/01	2017/02/01	9951364	5035089	US41456TNY19	C	2017/11/17				USD		O			BM	100.000000000		N
CPOPT	I	2017/02/01	2017/02/01	9951365	5035089	US41456TNY19	C	2018/05/17				USD		O			BM	100.000000000		N
CPOPT	I	2017/02/01	2017/02/01	9951366	5035089	US41456TNY19	C	2018/11/17				USD		O			BM	100.000000000		N
CPOPT	I	2017/02/01	2017/02/01	9951367	5035089	US41456TNY19	C	2019/05/17				USD		O			BM	100.000000000		N
CPOPT	I	2017/02/01	2017/02/01	9951368	5035089	US41456TNY19	C	2019/11/17				USD		O			BM	100.000000000		N
CPOPT	I	2017/02/01	2017/02/01	9951369	5035089	US41456TNY19	C	2020/05/17				USD		O			BM	100.000000000		N
CPOPT	I	2017/02/01	2017/02/01	9951370	5035089	US41456TNY19	C	2020/11/17				USD		O			BM	100.000000000		N
CPOPT	I	2017/02/01	2017/02/01	9951371	5035089	US41456TNY19	C	2021/05/17				USD		O			BM	100.000000000		N
CPOPT	I	2017/02/01	2017/02/01	9951372	5035089	US41456TNY19	C	2021/11/17				USD		O			BM	100.000000000		N
CPOPT	I	2017/02/01	2017/02/01	9951373	5035089	US41456TNY19	C	2022/05/17				USD		O			BM	100.000000000		N
CPOPT	I	2017/02/01	2017/02/01	9951374	5035089	US41456TNY19	C	2022/11/17				USD		O			BM	100.000000000		N
CPOPT	I	2017/02/01	2017/02/01	9951375	5035089	US41456TNY19	C	2023/05/17				USD		O			BM	100.000000000		N
CPOPT	I	2017/02/01	2017/02/01	9951376	5035101	US637432NL56	C	2017/12/08	2023/12/06			USD		O			US		B	Y
CPOPT	I	2017/02/01	2017/02/01	9951377	5035101	US637432NL56	C	2023/12/07	2024/02/06			USD	2000.00000	O			US	100.000000000	B	N
CPOPT	I	2017/02/01	2017/02/01	9951380	5032641	US40054KU386	C	2018/01/31				USD	1000.00000	O	10		BM	100.000000000	W	N
CPOPT	I	2017/02/01	2017/02/01	9951381	5032641	US40054KU386	C	2018/04/30				USD	1000.00000	O	10		BM	100.000000000	W	N
CPOPT	I	2017/02/01	2017/02/01	9951382	5032641	US40054KU386	C	2018/07/31				USD	1000.00000	O	10		BM	100.000000000	W	N
CPOPT	I	2017/02/01	2017/02/01	9951383	5032641	US40054KU386	C	2018/10/31				USD	1000.00000	O	10		BM	100.000000000	W	N
CPOPT	I	2017/02/01	2017/02/01	9951384	5032641	US40054KU386	C	2019/01/31				USD	1000.00000	O	10		BM	100.000000000	W	N
CPOPT	I	2017/02/01	2017/02/01	9951385	5032641	US40054KU386	C	2019/04/30				USD	1000.00000	O	10		BM	100.000000000	W	N
CPOPT	I	2017/02/01	2017/02/01	9951386	5032641	US40054KU386	C	2019/07/31				USD	1000.00000	O	10		BM	100.000000000	W	N
CPOPT	I	2017/02/01	2017/02/01	9951387	5032641	US40054KU386	C	2019/10/31				USD	1000.00000	O	10		BM	100.000000000	W	N
CPOPT	I	2017/02/01	2017/02/01	9951388	5032641	US40054KU386	C	2020/01/31				USD	1000.00000	O	10		BM	100.000000000	W	N
CPOPT	I	2017/02/01	2017/02/01	9951389	5032641	US40054KU386	C	2020/04/30				USD	1000.00000	O	10		BM	100.000000000	W	N
CPOPT	I	2017/02/01	2017/02/01	9951390	5032641	US40054KU386	C	2020/07/31				USD	1000.00000	O	10		BM	100.000000000	W	N
CPOPT	I	2017/02/01	2017/02/01	9951391	5032641	US40054KU386	C	2020/10/31				USD	1000.00000	O	10		BM	100.000000000	W	N
CPOPT	I	2017/02/01	2017/02/01	9951392	5032641	US40054KU386	C	2021/01/31				USD	1000.00000	O	10		BM	100.000000000	W	N
CPOPT	I	2017/02/01	2017/02/01	9951393	5032641	US40054KU386	C	2021/04/30				USD	1000.00000	O	10		BM	100.000000000	W	N
CPOPT	I	2017/02/01	2017/02/01	9951394	5032641	US40054KU386	C	2021/07/31				USD	1000.00000	O	10		BM	100.000000000	W	N
CPOPT	I	2017/02/01	2017/02/01	9951395	5032641	US40054KU386	C	2021/10/31				USD	1000.00000	O	10		BM	100.000000000	W	N
CPOPT	I	2017/02/01	2017/02/01	9951396	5032641	US40054KU386	C	2022/01/31				USD	1000.00000	O	10		BM	100.000000000	W	N
CPOPT	I	2017/02/01	2017/02/01	9951397	5032641	US40054KU386	C	2022/04/30				USD	1000.00000	O	10		BM	100.000000000	W	N
CPOPT	I	2017/02/01	2017/02/01	9951398	5032641	US40054KU386	C	2022/07/31				USD	1000.00000	O	10		BM	100.000000000	W	N
CPOPT	I	2017/02/01	2017/02/01	9951399	5032641	US40054KU386	C	2022/10/31				USD	1000.00000	O	10		BM	100.000000000	W	N
CPOPT	I	2017/02/01	2017/02/01	9951400	5032641	US40054KU386	C	2023/01/31				USD	1000.00000	O	10		BM	100.000000000	W	N
CPOPT	I	2017/02/01	2017/02/01	9951401	5032641	US40054KU386	C	2023/04/30				USD	1000.00000	O	10		BM	100.000000000	W	N
CPOPT	I	2017/02/01	2017/02/01	9951402	5032641	US40054KU386	C	2023/07/31				USD	1000.00000	O	10		BM	100.000000000	W	N
CPOPT	I	2017/02/01	2017/02/01	9951403	5032641	US40054KU386	C	2023/10/31				USD	1000.00000	O	10		BM	100.000000000	W	N
CPOPT	I	2017/02/01	2017/02/01	9951404	5032641	US40054KU386	C	2024/01/31				USD	1000.00000	O	10		BM	100.000000000	W	N
CPOPT	I	2017/02/01	2017/02/01	9951405	5032641	US40054KU386	C	2024/04/30				USD	1000.00000	O	10		BM	100.000000000	W	N
CPOPT	I	2017/02/01	2017/02/01	9951406	5032641	US40054KU386	C	2024/07/31				USD	1000.00000	O	10		BM	100.000000000	W	N
CPOPT	I	2017/02/01	2017/02/01	9951407	5032641	US40054KU386	C	2024/10/31				USD	1000.00000	O	10		BM	100.000000000	W	N
CPOPT	I	2017/02/01	2017/02/01	9951408	5032641	US40054KU386	C	2025/01/31				USD	1000.00000	O	10		BM	100.000000000	W	N
CPOPT	I	2017/02/01	2017/02/01	9951409	5032641	US40054KU386	C	2025/04/30				USD	1000.00000	O	10		BM	100.000000000	W	N
CPOPT	I	2017/02/01	2017/02/01	9951410	5032641	US40054KU386	C	2025/07/31				USD	1000.00000	O	10		BM	100.000000000	W	N
CPOPT	I	2017/02/01	2017/02/01	9951411	5032641	US40054KU386	C	2025/10/31				USD	1000.00000	O	10		BM	100.000000000	W	N
CPOPT	I	2017/02/01	2017/02/01	9951412	5032641	US40054KU386	C	2026/01/31				USD	1000.00000	O	10		BM	100.000000000	W	N
CPOPT	I	2017/02/01	2017/02/01	9951413	5032641	US40054KU386	C	2026/04/30				USD	1000.00000	O	10		BM	100.000000000	W	N
CPOPT	I	2017/02/01	2017/02/01	9951414	5032641	US40054KU386	C	2026/07/31				USD	1000.00000	O	10		BM	100.000000000	W	N
CPOPT	I	2017/02/01	2017/02/01	9951415	5032641	US40054KU386	C	2026/10/31				USD	1000.00000	O	10		BM	100.000000000	W	N
CPOPT	I	2017/02/01	2017/02/01	9951416	5032641	US40054KU386	C	2027/01/31				USD	1000.00000	O	10		BM	100.000000000	W	N
CPOPT	I	2017/02/01	2017/02/01	9951417	5032641	US40054KU386	C	2027/04/30				USD	1000.00000	O	10		BM	100.000000000	W	N
CPOPT	I	2017/02/01	2017/02/01	9951418	5032641	US40054KU386	C	2027/07/31				USD	1000.00000	O	10		BM	100.000000000	W	N
CPOPT	I	2017/02/01	2017/02/01	9951419	5032641	US40054KU386	C	2027/10/31				USD	1000.00000	O	10		BM	100.000000000	W	N
CPOPT	I	2017/02/01	2017/02/01	9951420	5032641	US40054KU386	C	2028/01/31				USD	1000.00000	O	10		BM	100.000000000	W	N
CPOPT	I	2017/02/01	2017/02/01	9951421	5032641	US40054KU386	C	2028/04/30				USD	1000.00000	O	10		BM	100.000000000	W	N
CPOPT	I	2017/02/01	2017/02/01	9951422	5032641	US40054KU386	C	2028/07/31				USD	1000.00000	O	10		BM	100.000000000	W	N
CPOPT	I	2017/02/01	2017/02/01	9951423	5032641	US40054KU386	C	2028/10/31				USD	1000.00000	O	10		BM	100.000000000	W	N
CPOPT	I	2017/02/01	2017/02/01	9951424	5032641	US40054KU386	C	2029/01/31				USD	1000.00000	O	10		BM	100.000000000	W	N
CPOPT	I	2017/02/01	2017/02/01	9951425	5032641	US40054KU386	C	2029/04/30				USD	1000.00000	O	10		BM	100.000000000	W	N
CPOPT	I	2017/02/01	2017/02/01	9951426	5032641	US40054KU386	C	2029/07/31				USD	1000.00000	O	10		BM	100.000000000	W	N
CPOPT	I	2017/02/01	2017/02/01	9951427	5032641	US40054KU386	C	2029/10/31				USD	1000.00000	O	10		BM	100.000000000	W	N
CPOPT	I	2017/02/01	2017/02/01	9951428	5032641	US40054KU386	C	2030/01/31				USD	1000.00000	O	10		BM	100.000000000	W	N
CPOPT	I	2017/02/01	2017/02/01	9951429	5032641	US40054KU386	C	2030/04/30				USD	1000.00000	O	10		BM	100.000000000	W	N
CPOPT	I	2017/02/01	2017/02/01	9951430	5032641	US40054KU386	C	2030/07/31				USD	1000.00000	O	10		BM	100.000000000	W	N
CPOPT	I	2017/02/01	2017/02/01	9951431	5032641	US40054KU386	C	2030/10/31				USD	1000.00000	O	10		BM	100.000000000	W	N
CPOPT	I	2017/02/01	2017/02/01	9951432	5032641	US40054KU386	C	2031/01/31				USD	1000.00000	O	10		BM	100.000000000	W	N
CPOPT	I	2017/02/01	2017/02/01	9951433	5032641	US40054KU386	C	2031/04/30				USD	1000.00000	O	10		BM	100.000000000	W	N
CPOPT	I	2017/02/01	2017/02/01	9951434	5032641	US40054KU386	C	2031/07/31				USD	1000.00000	O	10		BM	100.000000000	W	N
CPOPT	I	2017/02/01	2017/02/01	9951435	5032641	US40054KU386	C	2031/10/31				USD	1000.00000	O	10		BM	100.000000000	W	N
CPOPT	I	2017/02/01	2017/02/01	9951436	5035119	US41456TPJ24	C	2012/05/27				USD		O			BM	100.000000000		N
CPOPT	I	2017/02/01	2017/02/01	9951437	5035119	US41456TPJ24	C	2012/08/27				USD		O			BM	100.000000000		N
CPOPT	I	2017/02/01	2017/02/01	9951438	5035119	US41456TPJ24	C	2012/11/27				USD		O			BM	100.000000000		N
CPOPT	I	2017/02/01	2017/02/01	9951439	5035119	US41456TPJ24	C	2013/02/27				USD		O			BM	100.000000000		N
CPOPT	I	2017/02/01	2017/02/01	9951440	5035119	US41456TPJ24	C	2013/05/27				USD		O			BM	100.000000000		N
CPOPT	I	2017/02/01	2017/02/01	9951441	5035119	US41456TPJ24	C	2013/08/27				USD		O			BM	100.000000000		N
CPOPT	I	2017/02/01	2017/02/01	9951442	5035119	US41456TPJ24	C	2013/11/27				USD		O			BM	100.000000000		N
CPOPT	I	2017/02/01	2017/02/01	9951443	5035119	US41456TPJ24	C	2014/02/27				USD		O			BM	100.000000000		N
CPOPT	I	2017/02/01	2017/02/01	9951444	5035119	US41456TPJ24	C	2014/05/27				USD		O			BM	100.000000000		N
CPOPT	I	2017/02/01	2017/02/01	9951445	5035119	US41456TPJ24	C	2014/08/27				USD		O			BM	100.000000000		N
CPOPT	I	2017/02/01	2017/02/01	9951446	5035119	US41456TPJ24	C	2014/11/27				USD		O			BM	100.000000000		N
CPOPT	I	2017/02/01	2017/02/01	9951447	5035119	US41456TPJ24	C	2015/02/27				USD		O			BM	100.000000000		N
CPOPT	I	2017/02/01	2017/02/01	9951448	5035119	US41456TPJ24	C	2015/05/27				USD		O			BM	100.000000000		N
CPOPT	I	2017/02/01	2017/02/01	9951449	5035119	US41456TPJ24	C	2015/08/27				USD		O			BM	100.000000000		N
CPOPT	I	2017/02/01	2017/02/01	9951450	5035119	US41456TPJ24	C	2015/11/27				USD		O			BM	100.000000000		N
CPOPT	I	2017/02/01	2017/02/01	9951451	5035119	US41456TPJ24	C	2016/02/27				USD		O			BM	100.000000000		N
CPOPT	I	2017/02/01	2017/02/01	9951452	5035119	US41456TPJ24	C	2016/05/27				USD		O			BM	100.000000000		N
CPOPT	I	2017/02/01	2017/02/01	9951453	5035119	US41456TPJ24	C	2016/08/27				USD		O			BM	100.000000000		N
CPOPT	I	2017/02/01	2017/02/01	9951454	5035119	US41456TPJ24	C	2016/11/27				USD		O			BM	100.000000000		N
CPOPT	I	2017/02/01	2017/02/01	9951455	5035119	US41456TPJ24	C	2017/02/27				USD		O			BM	100.000000000		N
CPOPT	I	2017/02/01	2017/02/01	9951456	5035119	US41456TPJ24	C	2017/05/27				USD		O			BM	100.000000000		N
CPOPT	I	2017/02/01	2017/02/01	9951457	5035119	US41456TPJ24	C	2017/08/27				USD		O			BM	100.000000000		N
CPOPT	I	2017/02/01	2017/02/01	9951458	5035119	US41456TPJ24	C	2017/11/27				USD		O			BM	100.000000000		N
CPOPT	I	2017/02/01	2017/02/01	9951459	5035119	US41456TPJ24	C	2018/02/27				USD		O			BM	100.000000000		N
CPOPT	I	2017/02/01	2017/02/01	9951460	5035119	US41456TPJ24	C	2018/05/27				USD		O			BM	100.000000000		N
CPOPT	I	2017/02/01	2017/02/01	9951461	5035119	US41456TPJ24	C	2018/08/27				USD		O			BM	100.000000000		N
CPOPT	I	2017/02/01	2017/02/01	9951462	5035119	US41456TPJ24	C	2018/11/27				USD		O			BM	100.000000000		N
CPOPT	I	2017/02/01	2017/02/01	9951463	5035119	US41456TPJ24	C	2019/02/27				USD		O			BM	100.000000000		N
CPOPT	I	2017/02/01	2017/02/01	9951464	5035119	US41456TPJ24	C	2019/05/27				USD		O			BM	100.000000000		N
CPOPT	I	2017/02/01	2017/02/01	9951465	5035119	US41456TPJ24	C	2019/08/27				USD		O			BM	100.000000000		N
CPOPT	I	2017/02/01	2017/02/01	9951466	5035119	US41456TPJ24	C	2019/11/27				USD		O			BM	100.000000000		N
CPOPT	I	2017/02/01	2017/02/01	9951467	5035119	US41456TPJ24	C	2020/02/27				USD		O			BM	100.000000000		N
CPOPT	I	2017/02/01	2017/02/01	9951468	5035119	US41456TPJ24	C	2020/05/27				USD		O			BM	100.000000000		N
CPOPT	I	2017/02/01	2017/02/01	9951469	5035119	US41456TPJ24	C	2020/08/27				USD		O			BM	100.000000000		N
CPOPT	I	2017/02/01	2017/02/01	9951470	5035119	US41456TPJ24	C	2020/11/27				USD		O			BM	100.000000000		N
CPOPT	I	2017/02/01	2017/02/01	9951471	5035119	US41456TPJ24	C	2021/02/27				USD		O			BM	100.000000000		N
CPOPT	I	2017/02/01	2017/02/01	9951472	5035119	US41456TPJ24	C	2021/05/27				USD		O			BM	100.000000000		N
CPOPT	I	2017/02/01	2017/02/01	9951473	5035119	US41456TPJ24	C	2021/08/27				USD		O			BM	100.000000000		N
CPOPT	I	2017/02/01	2017/02/01	9951474	5035119	US41456TPJ24	C	2021/11/27				USD		O			BM	100.000000000		N
CPOPT	I	2017/02/01	2017/02/01	9951475	5035119	US41456TPJ24	C	2022/02/27				USD		O			BM	100.000000000		N
CPOPT	I	2017/02/01	2017/02/01	9951476	5035119	US41456TPJ24	C	2022/05/27				USD		O			BM	100.000000000		N
CPOPT	I	2017/02/01	2017/02/01	9951477	5035119	US41456TPJ24	C	2022/08/27				USD		O			BM	100.000000000		N
CPOPT	I	2017/02/01	2017/02/01	9951478	5035119	US41456TPJ24	C	2022/11/27				USD		O			BM	100.000000000		N
CPOPT	I	2017/02/01	2017/02/01	9951479	5035119	US41456TPJ24	C	2023/02/27				USD		O			BM	100.000000000		N
CPOPT	I	2017/02/01	2017/02/01	9951480	5035119	US41456TPJ24	C	2023/05/27				USD		O			BM	100.000000000		N
CPOPT	I	2017/02/01	2017/02/01	9951481	5035119	US41456TPJ24	C	2023/08/27				USD		O			BM	100.000000000		N
CPOPT	I	2017/02/01	2017/02/01	9951482	5035119	US41456TPJ24	C	2023/11/27				USD		O			BM	100.000000000		N
CPOPT	I	2017/02/01	2017/02/01	9951483	5035119	US41456TPJ24	C	2024/02/27				USD		O			BM	100.000000000		N
CPOPT	I	2017/02/01	2017/02/01	9951484	5035119	US41456TPJ24	C	2024/05/27				USD		O			BM	100.000000000		N
CPOPT	I	2017/02/01	2017/02/01	9951485	5035119	US41456TPJ24	C	2024/08/27				USD		O			BM	100.000000000		N
CPOPT	I	2017/02/01	2017/02/01	9951486	5035119	US41456TPJ24	C	2024/11/27				USD		O			BM	100.000000000		N
CPOPT	I	2017/02/01	2017/02/01	9951487	5035119	US41456TPJ24	C	2025/02/27				USD		O			BM	100.000000000		N
CPOPT	I	2017/02/01	2017/02/01	9951488	5035119	US41456TPJ24	C	2025/05/27				USD		O			BM	100.000000000		N
CPOPT	I	2017/02/01	2017/02/01	9951489	5035119	US41456TPJ24	C	2025/08/27				USD		O			BM	100.000000000		N
CPOPT	I	2017/02/01	2017/02/01	9951490	5035119	US41456TPJ24	C	2025/11/27				USD		O			BM	100.000000000		N
CPOPT	I	2017/02/01	2017/02/01	9951491	5035119	US41456TPJ24	C	2026/02/27				USD		O			BM	100.000000000		N
CPOPT	I	2017/02/01	2017/02/01	9951493	5035127	US00206RDS85	C	2017/02/10	2046/08/31			USD		O			US		B	Y
CPOPT	I	2017/02/01	2017/02/01	9951494	5035127	US00206RDS85	C	2046/09/01	2047/02/28			USD	2000.00000	O			US	100.000000000	B	N
CPOPT	I	2017/02/01	2017/02/01	9951495	5032617	US40054KTF39	C	2018/01/31				USD	1000.00000	O	10		BM	100.000000000	W	N
CPOPT	I	2017/02/01	2017/02/01	9951496	5032617	US40054KTF39	C	2018/02/28				USD	1000.00000	O	10		BM	100.000000000	W	N
CPOPT	I	2017/02/01	2017/02/01	9951497	5032617	US40054KTF39	C	2018/03/31				USD	1000.00000	O	10		BM	100.000000000	W	N
CPOPT	I	2017/02/01	2017/02/01	9951498	5032617	US40054KTF39	C	2018/04/30				USD	1000.00000	O	10		BM	100.000000000	W	N
CPOPT	I	2017/02/01	2017/02/01	9951499	5032617	US40054KTF39	C	2018/05/31				USD	1000.00000	O	10		BM	100.000000000	W	N
CPOPT	I	2017/02/01	2017/02/01	9951500	5032617	US40054KTF39	C	2018/06/30				USD	1000.00000	O	10		BM	100.000000000	W	N
CPOPT	I	2017/02/01	2017/02/01	9951501	5032617	US40054KTF39	C	2018/07/31				USD	1000.00000	O	10		BM	100.000000000	W	N
CPOPT	I	2017/02/01	2017/02/01	9951502	5032617	US40054KTF39	C	2018/08/31				USD	1000.00000	O	10		BM	100.000000000	W	N
CPOPT	I	2017/02/01	2017/02/01	9951503	5032617	US40054KTF39	C	2018/09/30				USD	1000.00000	O	10		BM	100.000000000	W	N
CPOPT	I	2017/02/01	2017/02/01	9951504	5032617	US40054KTF39	C	2018/10/31				USD	1000.00000	O	10		BM	100.000000000	W	N
CPOPT	I	2017/02/01	2017/02/01	9951505	5032617	US40054KTF39	C	2018/11/30				USD	1000.00000	O	10		BM	100.000000000	W	N
CPOPT	I	2017/02/01	2017/02/01	9951506	5032617	US40054KTF39	C	2018/12/31				USD	1000.00000	O	10		BM	100.000000000	W	N
CPOPT	I	2017/02/01	2017/02/01	9951507	5035129	US40054KU956	C	2018/02/01				USD	1000.00000	O	10		BM	100.000000000	W	N
CPOPT	I	2017/02/01	2017/02/01	9951508	5035129	US40054KU956	C	2018/05/01				USD	1000.00000	O	10		BM	100.000000000	W	N
CPOPT	I	2017/02/01	2017/02/01	9951509	5035129	US40054KU956	C	2018/08/01				USD	1000.00000	O	10		BM	100.000000000	W	N
CPOPT	I	2017/02/01	2017/02/01	9951510	5035129	US40054KU956	C	2018/11/01				USD	1000.00000	O	10		BM	100.000000000	W	N
CPOPT	I	2017/02/01	2017/02/01	9951515	5035141	US41456TPK96	C	2012/05/27				USD		O			BM	100.000000000		N
CPOPT	I	2017/02/01	2017/02/01	9951516	5035141	US41456TPK96	C	2012/06/27				USD		O			BM	100.000000000		N
CPOPT	I	2017/02/01	2017/02/01	9951517	5035141	US41456TPK96	C	2012/07/27				USD		O			BM	100.000000000		N
CPOPT	I	2017/02/01	2017/02/01	9951518	5035141	US41456TPK96	C	2012/08/27				USD		O			BM	100.000000000		N
CPOPT	I	2017/02/01	2017/02/01	9951519	5035141	US41456TPK96	C	2012/09/27				USD		O			BM	100.000000000		N
CPOPT	I	2017/02/01	2017/02/01	9951520	5035141	US41456TPK96	C	2012/10/27				USD		O			BM	100.000000000		N
CPOPT	I	2017/02/01	2017/02/01	9951521	5035141	US41456TPK96	C	2012/11/27				USD		O			BM	100.000000000		N
CPOPT	I	2017/02/01	2017/02/01	9951522	5035141	US41456TPK96	C	2012/12/27				USD		O			BM	100.000000000		N
CPOPT	I	2017/02/01	2017/02/01	9951523	5035141	US41456TPK96	C	2013/01/27				USD		O			BM	100.000000000		N
CPOPT	I	2017/02/01	2017/02/01	9951524	5035141	US41456TPK96	C	2013/02/27				USD		O			BM	100.000000000		N
CPOPT	I	2017/02/01	2017/02/01	9951525	5035141	US41456TPK96	C	2013/03/27				USD		O			BM	100.000000000		N
CPOPT	I	2017/02/01	2017/02/01	9951526	5035141	US41456TPK96	C	2013/04/27				USD		O			BM	100.000000000		N
CPOPT	I	2017/02/01	2017/02/01	9951527	5035141	US41456TPK96	C	2013/05/27				USD		O			BM	100.000000000		N
CPOPT	I	2017/02/01	2017/02/01	9951528	5035141	US41456TPK96	C	2013/06/27				USD		O			BM	100.000000000		N
CPOPT	I	2017/02/01	2017/02/01	9951529	5035141	US41456TPK96	C	2013/07/27				USD		O			BM	100.000000000		N
CPOPT	I	2017/02/01	2017/02/01	9951530	5035141	US41456TPK96	C	2013/08/27				USD		O			BM	100.000000000		N
CPOPT	I	2017/02/01	2017/02/01	9951531	5035141	US41456TPK96	C	2013/09/27				USD		O			BM	100.000000000		N
CPOPT	I	2017/02/01	2017/02/01	9951532	5035141	US41456TPK96	C	2013/10/27				USD		O			BM	100.000000000		N
CPOPT	I	2017/02/01	2017/02/01	9951533	5035141	US41456TPK96	C	2013/11/27				USD		O			BM	100.000000000		N
CPOPT	I	2017/02/01	2017/02/01	9951534	5035141	US41456TPK96	C	2013/12/27				USD		O			BM	100.000000000		N
CPOPT	I	2017/02/01	2017/02/01	9951535	5035141	US41456TPK96	C	2014/01/27				USD		O			BM	100.000000000		N
CPOPT	I	2017/02/01	2017/02/01	9951536	5035141	US41456TPK96	C	2014/02/27				USD		O			BM	100.000000000		N
CPOPT	I	2017/02/01	2017/02/01	9951537	5035141	US41456TPK96	C	2014/03/27				USD		O			BM	100.000000000		N
CPOPT	I	2017/02/01	2017/02/01	9951538	5035141	US41456TPK96	C	2014/04/27				USD		O			BM	100.000000000		N
CPOPT	I	2017/02/01	2017/02/01	9951539	5035141	US41456TPK96	C	2014/05/27				USD		O			BM	100.000000000		N
CPOPT	I	2017/02/01	2017/02/01	9951540	5035141	US41456TPK96	C	2014/06/27				USD		O			BM	100.000000000		N
CPOPT	I	2017/02/01	2017/02/01	9951541	5035141	US41456TPK96	C	2014/07/27				USD		O			BM	100.000000000		N
CPOPT	I	2017/02/01	2017/02/01	9951542	5035141	US41456TPK96	C	2014/08/27				USD		O			BM	100.000000000		N
CPOPT	I	2017/02/01	2017/02/01	9951543	5035141	US41456TPK96	C	2014/09/27				USD		O			BM	100.000000000		N
CPOPT	I	2017/02/01	2017/02/01	9951544	5035141	US41456TPK96	C	2014/10/27				USD		O			BM	100.000000000		N
CPOPT	I	2017/02/01	2017/02/01	9951545	5035141	US41456TPK96	C	2014/11/27				USD		O			BM	100.000000000		N
CPOPT	I	2017/02/01	2017/02/01	9951546	5035141	US41456TPK96	C	2014/12/27				USD		O			BM	100.000000000		N
CPOPT	I	2017/02/01	2017/02/01	9951547	5035141	US41456TPK96	C	2015/01/27				USD		O			BM	100.000000000		N
CPOPT	I	2017/02/01	2017/02/01	9951548	5035141	US41456TPK96	C	2015/02/27				USD		O			BM	100.000000000		N
CPOPT	I	2017/02/01	2017/02/01	9951549	5035141	US41456TPK96	C	2015/03/27				USD		O			BM	100.000000000		N
CPOPT	I	2017/02/01	2017/02/01	9951550	5035141	US41456TPK96	C	2015/04/27				USD		O			BM	100.000000000		N
CPOPT	I	2017/02/01	2017/02/01	9951551	5035141	US41456TPK96	C	2015/05/27				USD		O			BM	100.000000000		N
CPOPT	I	2017/02/01	2017/02/01	9951552	5035141	US41456TPK96	C	2015/06/27				USD		O			BM	100.000000000		N
CPOPT	I	2017/02/01	2017/02/01	9951553	5035141	US41456TPK96	C	2015/07/27				USD		O			BM	100.000000000		N
CPOPT	I	2017/02/01	2017/02/01	9951554	5035141	US41456TPK96	C	2015/08/27				USD		O			BM	100.000000000		N
CPOPT	I	2017/02/01	2017/02/01	9951555	5035141	US41456TPK96	C	2015/09/27				USD		O			BM	100.000000000		N
CPOPT	I	2017/02/01	2017/02/01	9951556	5035141	US41456TPK96	C	2015/10/27				USD		O			BM	100.000000000		N
CPOPT	I	2017/02/01	2017/02/01	9951557	5035141	US41456TPK96	C	2015/11/27				USD		O			BM	100.000000000		N
CPOPT	I	2017/02/01	2017/02/01	9951558	5035141	US41456TPK96	C	2015/12/27				USD		O			BM	100.000000000		N
CPOPT	I	2017/02/01	2017/02/01	9951559	5035141	US41456TPK96	C	2016/01/27				USD		O			BM	100.000000000		N
CPOPT	I	2017/02/01	2017/02/01	9951560	5035141	US41456TPK96	C	2016/02/27				USD		O			BM	100.000000000		N
CPOPT	I	2017/02/01	2017/02/01	9951561	5035141	US41456TPK96	C	2016/03/27				USD		O			BM	100.000000000		N
CPOPT	I	2017/02/01	2017/02/01	9951562	5035141	US41456TPK96	C	2016/04/27				USD		O			BM	100.000000000		N
CPOPT	I	2017/02/01	2017/02/01	9951563	5035141	US41456TPK96	C	2016/05/27				USD		O			BM	100.000000000		N
CPOPT	I	2017/02/01	2017/02/01	9951564	5035141	US41456TPK96	C	2016/06/27				USD		O			BM	100.000000000		N
CPOPT	I	2017/02/01	2017/02/01	9951565	5035141	US41456TPK96	C	2016/07/27				USD		O			BM	100.000000000		N
CPOPT	I	2017/02/01	2017/02/01	9951566	5035141	US41456TPK96	C	2016/08/27				USD		O			BM	100.000000000		N
CPOPT	I	2017/02/01	2017/02/01	9951567	5035141	US41456TPK96	C	2016/09/27				USD		O			BM	100.000000000		N
CPOPT	I	2017/02/01	2017/02/01	9951568	5035141	US41456TPK96	C	2016/10/27				USD		O			BM	100.000000000		N
CPOPT	I	2017/02/01	2017/02/01	9951569	5035141	US41456TPK96	C	2016/11/27				USD		O			BM	100.000000000		N
CPOPT	I	2017/02/01	2017/02/01	9951570	5035141	US41456TPK96	C	2016/12/27				USD		O			BM	100.000000000		N
CPOPT	I	2017/02/01	2017/02/01	9951571	5035141	US41456TPK96	C	2017/01/27				USD		O			BM	100.000000000		N
CPOPT	I	2017/02/01	2017/02/01	9951572	5035141	US41456TPK96	C	2017/02/27				USD		O			BM	100.000000000		N
CPOPT	I	2017/02/01	2017/02/01	9951573	5035141	US41456TPK96	C	2017/03/27				USD		O			BM	100.000000000		N
CPOPT	I	2017/02/01	2017/02/01	9951574	5035141	US41456TPK96	C	2017/04/27				USD		O			BM	100.000000000		N
CPOPT	I	2017/02/01	2017/02/01	9951575	5035141	US41456TPK96	C	2017/05/27				USD		O			BM	100.000000000		N
CPOPT	I	2017/02/01	2017/02/01	9951576	5035141	US41456TPK96	C	2017/06/27				USD		O			BM	100.000000000		N
CPOPT	I	2017/02/01	2017/02/01	9951577	5035141	US41456TPK96	C	2017/07/27				USD		O			BM	100.000000000		N
CPOPT	I	2017/02/01	2017/02/01	9951578	5035141	US41456TPK96	C	2017/08/27				USD		O			BM	100.000000000		N
CPOPT	I	2017/02/01	2017/02/01	9951579	5035141	US41456TPK96	C	2017/09/27				USD		O			BM	100.000000000		N
CPOPT	I	2017/02/01	2017/02/01	9951580	5035141	US41456TPK96	C	2017/10/27				USD		O			BM	100.000000000		N
CPOPT	I	2017/02/01	2017/02/01	9951581	5035141	US41456TPK96	C	2017/11/27				USD		O			BM	100.000000000		N
CPOPT	I	2017/02/01	2017/02/01	9951582	5035141	US41456TPK96	C	2017/12/27				USD		O			BM	100.000000000		N
CPOPT	I	2017/02/01	2017/02/01	9951583	5035141	US41456TPK96	C	2018/01/27				USD		O			BM	100.000000000		N
CPOPT	I	2017/02/01	2017/02/01	9951584	5035141	US41456TPK96	C	2018/02/27				USD		O			BM	100.000000000		N
CPOPT	I	2017/02/01	2017/02/01	9951585	5035141	US41456TPK96	C	2018/03/27				USD		O			BM	100.000000000		N
CPOPT	I	2017/02/01	2017/02/01	9951586	5035141	US41456TPK96	C	2018/04/27				USD		O			BM	100.000000000		N
CPOPT	I	2017/02/01	2017/02/01	9951587	5035141	US41456TPK96	C	2018/05/27				USD		O			BM	100.000000000		N
CPOPT	I	2017/02/01	2017/02/01	9951588	5035141	US41456TPK96	C	2018/06/27				USD		O			BM	100.000000000		N
CPOPT	I	2017/02/01	2017/02/01	9951589	5035141	US41456TPK96	C	2018/07/27				USD		O			BM	100.000000000		N
CPOPT	I	2017/02/01	2017/02/01	9951590	5035141	US41456TPK96	C	2018/08/27				USD		O			BM	100.000000000		N
CPOPT	I	2017/02/01	2017/02/01	9951591	5035141	US41456TPK96	C	2018/09/27				USD		O			BM	100.000000000		N
CPOPT	I	2017/02/01	2017/02/01	9951592	5035141	US41456TPK96	C	2018/10/27				USD		O			BM	100.000000000		N
CPOPT	I	2017/02/01	2017/02/01	9951593	5035141	US41456TPK96	C	2018/11/27				USD		O			BM	100.000000000		N
CPOPT	I	2017/02/01	2017/02/01	9951594	5035141	US41456TPK96	C	2018/12/27				USD		O			BM	100.000000000		N
CPOPT	I	2017/02/01	2017/02/01	9951595	5035141	US41456TPK96	C	2019/01/27				USD		O			BM	100.000000000		N
CPOPT	I	2017/02/01	2017/02/01	9951596	5035141	US41456TPK96	C	2019/02/27				USD		O			BM	100.000000000		N
CPOPT	I	2017/02/01	2017/02/01	9951597	5035141	US41456TPK96	C	2019/03/27				USD		O			BM	100.000000000		N
CPOPT	I	2017/02/01	2017/02/01	9951598	5035141	US41456TPK96	C	2019/04/27				USD		O			BM	100.000000000		N
CPOPT	I	2017/02/01	2017/02/01	9951599	5035141	US41456TPK96	C	2019/05/27				USD		O			BM	100.000000000		N
CPOPT	I	2017/02/01	2017/02/01	9951600	5035141	US41456TPK96	C	2019/06/27				USD		O			BM	100.000000000		N
CPOPT	I	2017/02/01	2017/02/01	9951601	5035141	US41456TPK96	C	2019/07/27				USD		O			BM	100.000000000		N
CPOPT	I	2017/02/01	2017/02/01	9951602	5035141	US41456TPK96	C	2019/08/27				USD		O			BM	100.000000000		N
CPOPT	I	2017/02/01	2017/02/01	9951603	5035141	US41456TPK96	C	2019/09/27				USD		O			BM	100.000000000		N
CPOPT	I	2017/02/01	2017/02/01	9951604	5035141	US41456TPK96	C	2019/10/27				USD		O			BM	100.000000000		N
CPOPT	I	2017/02/01	2017/02/01	9951605	5035141	US41456TPK96	C	2019/11/27				USD		O			BM	100.000000000		N
CPOPT	I	2017/02/01	2017/02/01	9951606	5035141	US41456TPK96	C	2019/12/27				USD		O			BM	100.000000000		N
CPOPT	I	2017/02/01	2017/02/01	9951607	5035141	US41456TPK96	C	2020/01/27				USD		O			BM	100.000000000		N
CPOPT	I	2017/02/01	2017/02/01	9951608	5035141	US41456TPK96	C	2020/02/27				USD		O			BM	100.000000000		N
CPOPT	I	2017/02/01	2017/02/01	9951609	5035141	US41456TPK96	C	2020/03/27				USD		O			BM	100.000000000		N
CPOPT	I	2017/02/01	2017/02/01	9951610	5035141	US41456TPK96	C	2020/04/27				USD		O			BM	100.000000000		N
CPOPT	I	2017/02/01	2017/02/01	9951611	5035141	US41456TPK96	C	2020/05/27				USD		O			BM	100.000000000		N
CPOPT	I	2017/02/01	2017/02/01	9951612	5035141	US41456TPK96	C	2020/06/27				USD		O			BM	100.000000000		N
CPOPT	I	2017/02/01	2017/02/01	9951613	5035141	US41456TPK96	C	2020/07/27				USD		O			BM	100.000000000		N
CPOPT	I	2017/02/01	2017/02/01	9951614	5035141	US41456TPK96	C	2020/08/27				USD		O			BM	100.000000000		N
CPOPT	I	2017/02/01	2017/02/01	9951615	5035141	US41456TPK96	C	2020/09/27				USD		O			BM	100.000000000		N
CPOPT	I	2017/02/01	2017/02/01	9951616	5035141	US41456TPK96	C	2020/10/27				USD		O			BM	100.000000000		N
CPOPT	I	2017/02/01	2017/02/01	9951617	5035141	US41456TPK96	C	2020/11/27				USD		O			BM	100.000000000		N
CPOPT	I	2017/02/01	2017/02/01	9951618	5035141	US41456TPK96	C	2020/12/27				USD		O			BM	100.000000000		N
CPOPT	I	2017/02/01	2017/02/01	9951619	5035141	US41456TPK96	C	2021/01/27				USD		O			BM	100.000000000		N
CPOPT	I	2017/02/01	2017/02/01	9951620	5035141	US41456TPK96	C	2021/02/27				USD		O			BM	100.000000000		N
CPOPT	I	2017/02/01	2017/02/01	9951621	5035141	US41456TPK96	C	2021/03/27				USD		O			BM	100.000000000		N
CPOPT	I	2017/02/01	2017/02/01	9951622	5035141	US41456TPK96	C	2021/04/27				USD		O			BM	100.000000000		N
CPOPT	I	2017/02/01	2017/02/01	9951623	5035141	US41456TPK96	C	2021/05/27				USD		O			BM	100.000000000		N
CPOPT	I	2017/02/01	2017/02/01	9951624	5035141	US41456TPK96	C	2021/06/27				USD		O			BM	100.000000000		N
CPOPT	I	2017/02/01	2017/02/01	9951625	5035141	US41456TPK96	C	2021/07/27				USD		O			BM	100.000000000		N
CPOPT	I	2017/02/01	2017/02/01	9951626	5035141	US41456TPK96	C	2021/08/27				USD		O			BM	100.000000000		N
CPOPT	I	2017/02/01	2017/02/01	9951627	5035141	US41456TPK96	C	2021/09/27				USD		O			BM	100.000000000		N
CPOPT	I	2017/02/01	2017/02/01	9951628	5035141	US41456TPK96	C	2021/10/27				USD		O			BM	100.000000000		N
CPOPT	I	2017/02/01	2017/02/01	9951629	5035141	US41456TPK96	C	2021/11/27				USD		O			BM	100.000000000		N
CPOPT	I	2017/02/01	2017/02/01	9951630	5035141	US41456TPK96	C	2021/12/27				USD		O			BM	100.000000000		N
CPOPT	I	2017/02/01	2017/02/01	9951631	5035141	US41456TPK96	C	2022/01/27				USD		O			BM	100.000000000		N
CPOPT	I	2017/02/01	2017/02/01	9951632	5035141	US41456TPK96	C	2022/02/27				USD		O			BM	100.000000000		N
CPOPT	I	2017/02/01	2017/02/01	9951633	5035141	US41456TPK96	C	2022/03/27				USD		O			BM	100.000000000		N
CPOPT	I	2017/02/01	2017/02/01	9951634	5035141	US41456TPK96	C	2022/04/27				USD		O			BM	100.000000000		N
CPOPT	I	2017/02/01	2017/02/01	9951635	5035141	US41456TPK96	C	2022/05/27				USD		O			BM	100.000000000		N
CPOPT	I	2017/02/01	2017/02/01	9951636	5035141	US41456TPK96	C	2022/06/27				USD		O			BM	100.000000000		N
CPOPT	I	2017/02/01	2017/02/01	9951637	5035141	US41456TPK96	C	2022/07/27				USD		O			BM	100.000000000		N
CPOPT	I	2017/02/01	2017/02/01	9951638	5035141	US41456TPK96	C	2022/08/27				USD		O			BM	100.000000000		N
CPOPT	I	2017/02/01	2017/02/01	9951639	5035141	US41456TPK96	C	2022/09/27				USD		O			BM	100.000000000		N
CPOPT	I	2017/02/01	2017/02/01	9951640	5035141	US41456TPK96	C	2022/10/27				USD		O			BM	100.000000000		N
CPOPT	I	2017/02/01	2017/02/01	9951641	5035141	US41456TPK96	C	2022/11/27				USD		O			BM	100.000000000		N
CPOPT	I	2017/02/01	2017/02/01	9951642	5035141	US41456TPK96	C	2022/12/27				USD		O			BM	100.000000000		N
CPOPT	I	2017/02/01	2017/02/01	9951643	5035141	US41456TPK96	C	2023/01/27				USD		O			BM	100.000000000		N
CPOPT	I	2017/02/01	2017/02/01	9951644	5035141	US41456TPK96	C	2023/02/27				USD		O			BM	100.000000000		N
CPOPT	I	2017/02/01	2017/02/01	9951645	5035141	US41456TPK96	C	2023/03/27				USD		O			BM	100.000000000		N
CPOPT	I	2017/02/01	2017/02/01	9951646	5035141	US41456TPK96	C	2023/04/27				USD		O			BM	100.000000000		N
CPOPT	I	2017/02/01	2017/02/01	9951647	5035141	US41456TPK96	C	2023/05/27				USD		O			BM	100.000000000		N
CPOPT	I	2017/02/01	2017/02/01	9951648	5035141	US41456TPK96	C	2023/06/27				USD		O			BM	100.000000000		N
CPOPT	I	2017/02/01	2017/02/01	9951649	5035141	US41456TPK96	C	2023/07/27				USD		O			BM	100.000000000		N
CPOPT	I	2017/02/01	2017/02/01	9951650	5035141	US41456TPK96	C	2023/08/27				USD		O			BM	100.000000000		N
CPOPT	I	2017/02/01	2017/02/01	9951651	5035141	US41456TPK96	C	2023/09/27				USD		O			BM	100.000000000		N
CPOPT	I	2017/02/01	2017/02/01	9951652	5035141	US41456TPK96	C	2023/10/27				USD		O			BM	100.000000000		N
CPOPT	I	2017/02/01	2017/02/01	9951653	5035141	US41456TPK96	C	2023/11/27				USD		O			BM	100.000000000		N
CPOPT	I	2017/02/01	2017/02/01	9951654	5035141	US41456TPK96	C	2023/12/27				USD		O			BM	100.000000000		N
CPOPT	I	2017/02/01	2017/02/01	9951655	5035141	US41456TPK96	C	2024/01/27				USD		O			BM	100.000000000		N
CPOPT	I	2017/02/01	2017/02/01	9951656	5035141	US41456TPK96	C	2024/02/27				USD		O			BM	100.000000000		N
CPOPT	I	2017/02/01	2017/02/01	9951657	5035141	US41456TPK96	C	2024/03/27				USD		O			BM	100.000000000		N
CPOPT	I	2017/02/01	2017/02/01	9951658	5035141	US41456TPK96	C	2024/04/27				USD		O			BM	100.000000000		N
CPOPT	I	2017/02/01	2017/02/01	9951659	5035141	US41456TPK96	C	2024/05/27				USD		O			BM	100.000000000		N
CPOPT	I	2017/02/01	2017/02/01	9951660	5035141	US41456TPK96	C	2024/06/27				USD		O			BM	100.000000000		N
CPOPT	I	2017/02/01	2017/02/01	9951661	5035141	US41456TPK96	C	2024/07/27				USD		O			BM	100.000000000		N
CPOPT	I	2017/02/01	2017/02/01	9951662	5035141	US41456TPK96	C	2024/08/27				USD		O			BM	100.000000000		N
CPOPT	I	2017/02/01	2017/02/01	9951663	5035141	US41456TPK96	C	2024/09/27				USD		O			BM	100.000000000		N
CPOPT	I	2017/02/01	2017/02/01	9951664	5035141	US41456TPK96	C	2024/10/27				USD		O			BM	100.000000000		N
CPOPT	I	2017/02/01	2017/02/01	9951665	5035141	US41456TPK96	C	2024/11/27				USD		O			BM	100.000000000		N
CPOPT	I	2017/02/01	2017/02/01	9951666	5035141	US41456TPK96	C	2024/12/27				USD		O			BM	100.000000000		N
CPOPT	I	2017/02/01	2017/02/01	9951667	5035141	US41456TPK96	C	2025/01/27				USD		O			BM	100.000000000		N
CPOPT	I	2017/02/01	2017/02/01	9951668	5035141	US41456TPK96	C	2025/02/27				USD		O			BM	100.000000000		N
CPOPT	I	2017/02/01	2017/02/01	9951669	5035141	US41456TPK96	C	2025/03/27				USD		O			BM	100.000000000		N
CPOPT	I	2017/02/01	2017/02/01	9951670	5035141	US41456TPK96	C	2025/04/27				USD		O			BM	100.000000000		N
CPOPT	I	2017/02/01	2017/02/01	9951671	5035141	US41456TPK96	C	2025/05/27				USD		O			BM	100.000000000		N
CPOPT	I	2017/02/01	2017/02/01	9951672	5035141	US41456TPK96	C	2025/06/27				USD		O			BM	100.000000000		N
CPOPT	I	2017/02/01	2017/02/01	9951673	5035141	US41456TPK96	C	2025/07/27				USD		O			BM	100.000000000		N
CPOPT	I	2017/02/01	2017/02/01	9951674	5035141	US41456TPK96	C	2025/08/27				USD		O			BM	100.000000000		N
CPOPT	I	2017/02/01	2017/02/01	9951675	5035141	US41456TPK96	C	2025/09/27				USD		O			BM	100.000000000		N
CPOPT	I	2017/02/01	2017/02/01	9951676	5035141	US41456TPK96	C	2025/10/27				USD		O			BM	100.000000000		N
CPOPT	I	2017/02/01	2017/02/01	9951677	5035141	US41456TPK96	C	2025/11/27				USD		O			BM	100.000000000		N
CPOPT	I	2017/02/01	2017/02/01	9951678	5035141	US41456TPK96	C	2025/12/27				USD		O			BM	100.000000000		N
CPOPT	I	2017/02/01	2017/02/01	9951679	5035141	US41456TPK96	C	2026/01/27				USD		O			BM	100.000000000		N
CPOPT	I	2017/02/01	2017/02/01	9951680	5035141	US41456TPK96	C	2026/02/27				USD		O			BM	100.000000000		N
CPOPT	I	2017/02/01	2017/02/01	9951681	5035141	US41456TPK96	C	2026/03/27				USD		O			BM	100.000000000		N
CPOPT	I	2017/02/01	2017/02/01	9951682	5035141	US41456TPK96	C	2026/04/27				USD		O			BM	100.000000000		N
CPOPT	I	2017/02/01	2017/02/01	9951684	5032617	US40054KTF39	C	2019/01/31				USD	1000.00000	O	10		BM	100.000000000	W	N
CPOPT	I	2017/02/01	2017/02/01	9951685	5032617	US40054KTF39	C	2019/02/28				USD	1000.00000	O	10		BM	100.000000000	W	N
CPOPT	I	2017/02/01	2017/02/01	9951686	5032617	US40054KTF39	C	2019/03/31				USD	1000.00000	O	10		BM	100.000000000	W	N
CPOPT	I	2017/02/01	2017/02/01	9951687	5032617	US40054KTF39	C	2019/04/30				USD	1000.00000	O	10		BM	100.000000000	W	N
CPOPT	I	2017/02/01	2017/02/01	9951688	5032617	US40054KTF39	C	2019/05/31				USD	1000.00000	O	10		BM	100.000000000	W	N
CPOPT	I	2017/02/01	2017/02/01	9951689	5032617	US40054KTF39	C	2019/06/30				USD	1000.00000	O	10		BM	100.000000000	W	N
CPOPT	I	2017/02/01	2017/02/01	9951690	5032617	US40054KTF39	C	2019/07/31				USD	1000.00000	O	10		BM	100.000000000	W	N
CPOPT	I	2017/02/01	2017/02/01	9951691	5032617	US40054KTF39	C	2019/08/31				USD	1000.00000	O	10		BM	100.000000000	W	N
CPOPT	I	2017/02/01	2017/02/01	9951692	5032617	US40054KTF39	C	2019/09/30				USD	1000.00000	O	10		BM	100.000000000	W	N
CPOPT	I	2017/02/01	2017/02/01	9951693	5032617	US40054KTF39	C	2019/10/31				USD	1000.00000	O	10		BM	100.000000000	W	N
CPOPT	I	2017/02/01	2017/02/01	9951694	5032617	US40054KTF39	C	2019/11/30				USD	1000.00000	O	10		BM	100.000000000	W	N
CPOPT	I	2017/02/01	2017/02/01	9951695	5032617	US40054KTF39	C	2019/12/31				USD	1000.00000	O	10		BM	100.000000000	W	N
CPOPT	I	2017/02/01	2017/02/01	9951696	5032617	US40054KTF39	C	2020/01/31				USD	1000.00000	O	10		BM	100.000000000	W	N
CPOPT	I	2017/02/01	2017/02/01	9951697	5032617	US40054KTF39	C	2020/02/28				USD	1000.00000	O	10		BM	100.000000000	W	N
CPOPT	I	2017/02/01	2017/02/01	9951698	5032617	US40054KTF39	C	2020/03/31				USD	1000.00000	O	10		BM	100.000000000	W	N
CPOPT	I	2017/02/01	2017/02/01	9951699	5032617	US40054KTF39	C	2020/04/30				USD	1000.00000	O	10		BM	100.000000000	W	N
CPOPT	I	2017/02/01	2017/02/01	9951700	5032617	US40054KTF39	C	2020/05/31				USD	1000.00000	O	10		BM	100.000000000	W	N
CPOPT	I	2017/02/01	2017/02/01	9951701	5032617	US40054KTF39	C	2020/06/30				USD	1000.00000	O	10		BM	100.000000000	W	N
CPOPT	I	2017/02/01	2017/02/01	9951702	5032617	US40054KTF39	C	2020/07/31				USD	1000.00000	O	10		BM	100.000000000	W	N
CPOPT	I	2017/02/01	2017/02/01	9951703	5032617	US40054KTF39	C	2020/08/31				USD	1000.00000	O	10		BM	100.000000000	W	N
CPOPT	I	2017/02/01	2017/02/01	9951704	5032617	US40054KTF39	C	2020/09/30				USD	1000.00000	O	10		BM	100.000000000	W	N
CPOPT	I	2017/02/01	2017/02/01	9951705	5032617	US40054KTF39	C	2020/10/31				USD	1000.00000	O	10		BM	100.000000000	W	N
CPOPT	I	2017/02/01	2017/02/01	9951706	5032617	US40054KTF39	C	2020/11/30				USD	1000.00000	O	10		BM	100.000000000	W	N
CPOPT	I	2017/02/01	2017/02/01	9951707	5032617	US40054KTF39	C	2020/12/31				USD	1000.00000	O	10		BM	100.000000000	W	N
CPOPT	I	2017/02/01	2017/02/01	9951708	5032617	US40054KTF39	C	2021/01/31				USD	1000.00000	O	10		BM	100.000000000	W	N
CPOPT	I	2017/02/01	2017/02/01	9951709	5032617	US40054KTF39	C	2021/02/28				USD	1000.00000	O	10		BM	100.000000000	W	N
CPOPT	I	2017/02/01	2017/02/01	9951710	5032617	US40054KTF39	C	2021/03/31				USD	1000.00000	O	10		BM	100.000000000	W	N
CPOPT	I	2017/02/01	2017/02/01	9951711	5032617	US40054KTF39	C	2021/04/30				USD	1000.00000	O	10		BM	100.000000000	W	N
CPOPT	I	2017/02/01	2017/02/01	9951712	5032617	US40054KTF39	C	2021/05/31				USD	1000.00000	O	10		BM	100.000000000	W	N
CPOPT	I	2017/02/01	2017/02/01	9951713	5032617	US40054KTF39	C	2021/06/30				USD	1000.00000	O	10		BM	100.000000000	W	N
CPOPT	I	2017/02/01	2017/02/01	9951714	5032617	US40054KTF39	C	2021/07/31				USD	1000.00000	O	10		BM	100.000000000	W	N
CPOPT	I	2017/02/01	2017/02/01	9951715	5032617	US40054KTF39	C	2021/08/31				USD	1000.00000	O	10		BM	100.000000000	W	N
CPOPT	I	2017/02/01	2017/02/01	9951716	5032617	US40054KTF39	C	2021/09/30				USD	1000.00000	O	10		BM	100.000000000	W	N
CPOPT	I	2017/02/01	2017/02/01	9951717	5032617	US40054KTF39	C	2021/10/31				USD	1000.00000	O	10		BM	100.000000000	W	N
CPOPT	I	2017/02/01	2017/02/01	9951718	5032617	US40054KTF39	C	2021/11/30				USD	1000.00000	O	10		BM	100.000000000	W	N
CPOPT	I	2017/02/01	2017/02/01	9951719	5032617	US40054KTF39	C	2021/12/31				USD	1000.00000	O	10		BM	100.000000000	W	N
CPOPT	I	2017/02/01	2017/02/01	9951720	5032617	US40054KTF39	C	2022/01/31				USD	1000.00000	O	10		BM	100.000000000	W	N
CPOPT	I	2017/02/01	2017/02/01	9951721	5032617	US40054KTF39	C	2022/02/28				USD	1000.00000	O	10		BM	100.000000000	W	N
CPOPT	I	2017/02/01	2017/02/01	9951722	5032617	US40054KTF39	C	2022/03/31				USD	1000.00000	O	10		BM	100.000000000	W	N
CPOPT	I	2017/02/01	2017/02/01	9951723	5032617	US40054KTF39	C	2022/04/30				USD	1000.00000	O	10		BM	100.000000000	W	N
CPOPT	I	2017/02/01	2017/02/01	9951724	5032617	US40054KTF39	C	2022/05/31				USD	1000.00000	O	10		BM	100.000000000	W	N
CPOPT	I	2017/02/01	2017/02/01	9951725	5032617	US40054KTF39	C	2022/06/30				USD	1000.00000	O	10		BM	100.000000000	W	N
CPOPT	I	2017/02/01	2017/02/01	9951726	5032617	US40054KTF39	C	2022/07/31				USD	1000.00000	O	10		BM	100.000000000	W	N
CPOPT	I	2017/02/01	2017/02/01	9951727	5032617	US40054KTF39	C	2022/08/31				USD	1000.00000	O	10		BM	100.000000000	W	N
CPOPT	I	2017/02/01	2017/02/01	9951728	5032617	US40054KTF39	C	2022/09/30				USD	1000.00000	O	10		BM	100.000000000	W	N
CPOPT	I	2017/02/01	2017/02/01	9951729	5032617	US40054KTF39	C	2022/10/31				USD	1000.00000	O	10		BM	100.000000000	W	N
CPOPT	I	2017/02/01	2017/02/01	9951730	5032617	US40054KTF39	C	2022/11/30				USD	1000.00000	O	10		BM	100.000000000	W	N
CPOPT	I	2017/02/01	2017/02/01	9951731	5032617	US40054KTF39	C	2022/12/31				USD	1000.00000	O	10		BM	100.000000000	W	N
CPOPT	I	2017/02/01	2017/02/01	9951732	5032617	US40054KTF39	C	2023/01/31				USD	1000.00000	O	10		BM	100.000000000	W	N
CPOPT	I	2017/02/01	2017/02/01	9951733	5032617	US40054KTF39	C	2023/02/28				USD	1000.00000	O	10		BM	100.000000000	W	N
CPOPT	I	2017/02/01	2017/02/01	9951734	5032617	US40054KTF39	C	2023/03/31				USD	1000.00000	O	10		BM	100.000000000	W	N
CPOPT	I	2017/02/01	2017/02/01	9951735	5032617	US40054KTF39	C	2023/04/30				USD	1000.00000	O	10		BM	100.000000000	W	N
CPOPT	I	2017/02/01	2017/02/01	9951736	5032617	US40054KTF39	C	2023/05/31				USD	1000.00000	O	10		BM	100.000000000	W	N
CPOPT	I	2017/02/01	2017/02/01	9951737	5032617	US40054KTF39	C	2023/06/30				USD	1000.00000	O	10		BM	100.000000000	W	N
CPOPT	I	2017/02/01	2017/02/01	9951738	5032617	US40054KTF39	C	2023/07/31				USD	1000.00000	O	10		BM	100.000000000	W	N
CPOPT	I	2017/02/01	2017/02/01	9951739	5032617	US40054KTF39	C	2023/08/31				USD	1000.00000	O	10		BM	100.000000000	W	N
CPOPT	I	2017/02/01	2017/02/01	9951740	5032617	US40054KTF39	C	2023/09/30				USD	1000.00000	O	10		BM	100.000000000	W	N
CPOPT	I	2017/02/01	2017/02/01	9951741	5032617	US40054KTF39	C	2023/10/31				USD	1000.00000	O	10		BM	100.000000000	W	N
CPOPT	I	2017/02/01	2017/02/01	9951742	5032617	US40054KTF39	C	2023/11/30				USD	1000.00000	O	10		BM	100.000000000	W	N
CPOPT	I	2017/02/01	2017/02/01	9951743	5032617	US40054KTF39	C	2023/12/31				USD	1000.00000	O	10		BM	100.000000000	W	N
CPOPT	I	2017/02/01	2017/02/01	9951744	5032617	US40054KTF39	C	2024/01/31				USD	1000.00000	O	10		BM	100.000000000	W	N
CPOPT	I	2017/02/01	2017/02/01	9951745	5032617	US40054KTF39	C	2024/02/28				USD	1000.00000	O	10		BM	100.000000000	W	N
CPOPT	I	2017/02/01	2017/02/01	9951746	5032617	US40054KTF39	C	2024/03/31				USD	1000.00000	O	10		BM	100.000000000	W	N
CPOPT	I	2017/02/01	2017/02/01	9951747	5032617	US40054KTF39	C	2024/04/30				USD	1000.00000	O	10		BM	100.000000000	W	N
CPOPT	I	2017/02/01	2017/02/01	9951748	5032617	US40054KTF39	C	2024/05/31				USD	1000.00000	O	10		BM	100.000000000	W	N
CPOPT	I	2017/02/01	2017/02/01	9951749	5032617	US40054KTF39	C	2024/06/30				USD	1000.00000	O	10		BM	100.000000000	W	N
CPOPT	I	2017/02/01	2017/02/01	9951750	5032617	US40054KTF39	C	2024/07/31				USD	1000.00000	O	10		BM	100.000000000	W	N
CPOPT	I	2017/02/01	2017/02/01	9951751	5032617	US40054KTF39	C	2024/08/31				USD	1000.00000	O	10		BM	100.000000000	W	N
CPOPT	I	2017/02/01	2017/02/01	9951752	5032617	US40054KTF39	C	2024/09/30				USD	1000.00000	O	10		BM	100.000000000	W	N
CPOPT	I	2017/02/01	2017/02/01	9951753	5032617	US40054KTF39	C	2024/10/31				USD	1000.00000	O	10		BM	100.000000000	W	N
CPOPT	I	2017/02/01	2017/02/01	9951754	5032617	US40054KTF39	C	2024/11/30				USD	1000.00000	O	10		BM	100.000000000	W	N
CPOPT	I	2017/02/01	2017/02/01	9951755	5032617	US40054KTF39	C	2024/12/31				USD	1000.00000	O	10		BM	100.000000000	W	N
CPOPT	I	2017/02/01	2017/02/01	9951756	5032617	US40054KTF39	C	2025/01/31				USD	1000.00000	O	10		BM	100.000000000	W	N
CPOPT	I	2017/02/01	2017/02/01	9951757	5032617	US40054KTF39	C	2025/02/28				USD	1000.00000	O	10		BM	100.000000000	W	N
CPOPT	I	2017/02/01	2017/02/01	9951758	5032617	US40054KTF39	C	2025/03/31				USD	1000.00000	O	10		BM	100.000000000	W	N
CPOPT	I	2017/02/01	2017/02/01	9951759	5032617	US40054KTF39	C	2025/04/30				USD	1000.00000	O	10		BM	100.000000000	W	N
CPOPT	I	2017/02/01	2017/02/01	9951760	5032617	US40054KTF39	C	2025/05/31				USD	1000.00000	O	10		BM	100.000000000	W	N
CPOPT	I	2017/02/01	2017/02/01	9951761	5032617	US40054KTF39	C	2025/06/30				USD	1000.00000	O	10		BM	100.000000000	W	N
CPOPT	I	2017/02/01	2017/02/01	9951762	5032617	US40054KTF39	C	2025/07/31				USD	1000.00000	O	10		BM	100.000000000	W	N
CPOPT	I	2017/02/01	2017/02/01	9951763	5032617	US40054KTF39	C	2025/08/31				USD	1000.00000	O	10		BM	100.000000000	W	N
CPOPT	I	2017/02/01	2017/02/01	9951764	5032617	US40054KTF39	C	2025/09/30				USD	1000.00000	O	10		BM	100.000000000	W	N
CPOPT	I	2017/02/01	2017/02/01	9951765	5032617	US40054KTF39	C	2025/10/31				USD	1000.00000	O	10		BM	100.000000000	W	N
CPOPT	I	2017/02/01	2017/02/01	9951766	5032617	US40054KTF39	C	2025/11/30				USD	1000.00000	O	10		BM	100.000000000	W	N
CPOPT	I	2017/02/01	2017/02/01	9951767	5032617	US40054KTF39	C	2025/12/31				USD	1000.00000	O	10		BM	100.000000000	W	N
CPOPT	I	2017/02/01	2017/02/01	9951768	5032617	US40054KTF39	C	2026/01/31				USD	1000.00000	O	10		BM	100.000000000	W	N
CPOPT	I	2017/02/01	2017/02/01	9951769	5032617	US40054KTF39	C	2026/02/28				USD	1000.00000	O	10		BM	100.000000000	W	N
CPOPT	I	2017/02/01	2017/02/01	9951770	5032617	US40054KTF39	C	2026/03/31				USD	1000.00000	O	10		BM	100.000000000	W	N
CPOPT	I	2017/02/01	2017/02/01	9951771	5032617	US40054KTF39	C	2026/04/30				USD	1000.00000	O	10		BM	100.000000000	W	N
CPOPT	I	2017/02/01	2017/02/01	9951772	5032617	US40054KTF39	C	2026/05/31				USD	1000.00000	O	10		BM	100.000000000	W	N
CPOPT	I	2017/02/01	2017/02/01	9951773	5032617	US40054KTF39	C	2026/06/30				USD	1000.00000	O	10		BM	100.000000000	W	N
CPOPT	I	2017/02/01	2017/02/01	9951774	5032617	US40054KTF39	C	2026/07/31				USD	1000.00000	O	10		BM	100.000000000	W	N
CPOPT	I	2017/02/01	2017/02/01	9951775	5032617	US40054KTF39	C	2026/08/31				USD	1000.00000	O	10		BM	100.000000000	W	N
CPOPT	I	2017/02/01	2017/02/01	9951776	5032617	US40054KTF39	C	2026/09/30				USD	1000.00000	O	10		BM	100.000000000	W	N
CPOPT	I	2017/02/01	2017/02/01	9951777	5032617	US40054KTF39	C	2026/10/31				USD	1000.00000	O	10		BM	100.000000000	W	N
CPOPT	I	2017/02/01	2017/02/01	9951778	5032617	US40054KTF39	C	2026/11/30				USD	1000.00000	O	10		BM	100.000000000	W	N
CPOPT	I	2017/02/01	2017/02/01	9951779	5032617	US40054KTF39	C	2026/12/31				USD	1000.00000	O	10		BM	100.000000000	W	N
CPOPT	I	2017/02/01	2017/02/01	9951781	5032040	US78013GCC78	C	2017/05/02				USD	1000.00000	O			BM	100.000000000		N
CPOPT	I	2017/02/01	2017/02/01	9951782	5032040	US78013GCC78	C	2017/08/01				USD	1000.00000	O			BM	100.000000000		N
CPOPT	I	2017/02/01	2017/02/01	9951783	5032040	US78013GCC78	C	2017/11/01				USD	1000.00000	O			BM	100.000000000		N
CPOPT	I	2017/02/01	2017/02/01	9951784	5032040	US78013GCC78	C	2018/02/01				USD	1000.00000	O			BM	100.000000000		N
CPOPT	I	2017/02/01	2017/02/01	9951785	5032040	US78013GCC78	C	2018/05/02				USD	1000.00000	O			BM	100.000000000		N
CPOPT	I	2017/02/01	2017/02/01	9951786	5032040	US78013GCC78	C	2018/08/01				USD	1000.00000	O			BM	100.000000000		N
CPOPT	I	2017/02/01	2017/02/01	9951787	5032040	US78013GCC78	C	2018/11/01				USD	1000.00000	O			BM	100.000000000		N
CPOPT	I	2017/02/01	2017/02/01	9951788	5035129	US40054KU956	C	2019/02/01				USD	1000.00000	O	10		BM	100.000000000	W	N
CPOPT	I	2017/02/01	2017/02/01	9951789	5035129	US40054KU956	C	2019/05/01				USD	1000.00000	O	10		BM	100.000000000	W	N
CPOPT	I	2017/02/01	2017/02/01	9951790	5035129	US40054KU956	C	2019/08/01				USD	1000.00000	O	10		BM	100.000000000	W	N
CPOPT	I	2017/02/01	2017/02/01	9951791	5035129	US40054KU956	C	2019/11/01				USD	1000.00000	O	10		BM	100.000000000	W	N
CPOPT	I	2017/02/01	2017/02/01	9951792	5035129	US40054KU956	C	2020/02/01				USD	1000.00000	O	10		BM	100.000000000	W	N
CPOPT	I	2017/02/01	2017/02/01	9951793	5035129	US40054KU956	C	2020/05/01				USD	1000.00000	O	10		BM	100.000000000	W	N
CPOPT	I	2017/02/01	2017/02/01	9951794	5035129	US40054KU956	C	2020/08/01				USD	1000.00000	O	10		BM	100.000000000	W	N
CPOPT	I	2017/02/01	2017/02/01	9951795	5035129	US40054KU956	C	2020/11/01				USD	1000.00000	O	10		BM	100.000000000	W	N
CPOPT	I	2017/02/01	2017/02/01	9951796	5035129	US40054KU956	C	2021/02/01				USD	1000.00000	O	10		BM	100.000000000	W	N
CPOPT	I	2017/02/01	2017/02/01	9951797	5035129	US40054KU956	C	2021/05/01				USD	1000.00000	O	10		BM	100.000000000	W	N
CPOPT	I	2017/02/01	2017/02/01	9951798	5035129	US40054KU956	C	2021/08/01				USD	1000.00000	O	10		BM	100.000000000	W	N
CPOPT	I	2017/02/01	2017/02/01	9951799	5035129	US40054KU956	C	2021/11/01				USD	1000.00000	O	10		BM	100.000000000	W	N
CPOPT	I	2017/02/01	2017/02/01	9951800	5035129	US40054KU956	C	2022/02/01				USD	1000.00000	O	10		BM	100.000000000	W	N
CPOPT	I	2017/02/01	2017/02/01	9951801	5035129	US40054KU956	C	2022/05/01				USD	1000.00000	O	10		BM	100.000000000	W	N
CPOPT	I	2017/02/01	2017/02/01	9951802	5035129	US40054KU956	C	2022/08/01				USD	1000.00000	O	10		BM	100.000000000	W	N
CPOPT	I	2017/02/01	2017/02/01	9951803	5035129	US40054KU956	C	2022/11/01				USD	1000.00000	O	10		BM	100.000000000	W	N
CPOPT	I	2017/02/01	2017/02/01	9951804	5035129	US40054KU956	C	2023/02/01				USD	1000.00000	O	10		BM	100.000000000	W	N
CPOPT	I	2017/02/01	2017/02/01	9951805	5035129	US40054KU956	C	2023/05/01				USD	1000.00000	O	10		BM	100.000000000	W	N
CPOPT	I	2017/02/01	2017/02/01	9951806	5035129	US40054KU956	C	2023/08/01				USD	1000.00000	O	10		BM	100.000000000	W	N
CPOPT	I	2017/02/01	2017/02/01	9951807	5035129	US40054KU956	C	2023/11/01				USD	1000.00000	O	10		BM	100.000000000	W	N
CPOPT	I	2017/02/01	2017/02/01	9951808	5035129	US40054KU956	C	2024/02/01				USD	1000.00000	O	10		BM	100.000000000	W	N
CPOPT	I	2017/02/01	2017/02/01	9951809	5035129	US40054KU956	C	2024/05/01				USD	1000.00000	O	10		BM	100.000000000	W	N
CPOPT	I	2017/02/01	2017/02/01	9951810	5035129	US40054KU956	C	2024/08/01				USD	1000.00000	O	10		BM	100.000000000	W	N
CPOPT	I	2017/02/01	2017/02/01	9951811	5035129	US40054KU956	C	2024/11/01				USD	1000.00000	O	10		BM	100.000000000	W	N
CPOPT	I	2017/02/01	2017/02/01	9951812	5035129	US40054KU956	C	2025/02/01				USD	1000.00000	O	10		BM	100.000000000	W	N
CPOPT	I	2017/02/01	2017/02/01	9951813	5035129	US40054KU956	C	2025/05/01				USD	1000.00000	O	10		BM	100.000000000	W	N
CPOPT	I	2017/02/01	2017/02/01	9951814	5035129	US40054KU956	C	2025/08/01				USD	1000.00000	O	10		BM	100.000000000	W	N
CPOPT	I	2017/02/01	2017/02/01	9951815	5035129	US40054KU956	C	2025/11/01				USD	1000.00000	O	10		BM	100.000000000	W	N
CPOPT	I	2017/02/01	2017/02/01	9951816	5035129	US40054KU956	C	2026/02/01				USD	1000.00000	O	10		BM	100.000000000	W	N
CPOPT	I	2017/02/01	2017/02/01	9951817	5035129	US40054KU956	C	2026/05/01				USD	1000.00000	O	10		BM	100.000000000	W	N
CPOPT	I	2017/02/01	2017/02/01	9951818	5035129	US40054KU956	C	2026/08/01				USD	1000.00000	O	10		BM	100.000000000	W	N
CPOPT	I	2017/02/01	2017/02/01	9951819	5035129	US40054KU956	C	2026/11/01				USD	1000.00000	O	10		BM	100.000000000	W	N
CPOPT	I	2017/02/01	2017/02/01	9951820	5035129	US40054KU956	C	2027/02/01				USD	1000.00000	O	10		BM	100.000000000	W	N
CPOPT	I	2017/02/01	2017/02/01	9951821	5035129	US40054KU956	C	2027/05/01				USD	1000.00000	O	10		BM	100.000000000	W	N
CPOPT	I	2017/02/01	2017/02/01	9951822	5035129	US40054KU956	C	2027/08/01				USD	1000.00000	O	10		BM	100.000000000	W	N
CPOPT	I	2017/02/01	2017/02/01	9951823	5035129	US40054KU956	C	2027/11/01				USD	1000.00000	O	10		BM	100.000000000	W	N
CPOPT	I	2017/02/01	2017/02/01	9951824	5035129	US40054KU956	C	2028/02/01				USD	1000.00000	O	10		BM	100.000000000	W	N
CPOPT	I	2017/02/01	2017/02/01	9951825	5035129	US40054KU956	C	2028/05/01				USD	1000.00000	O	10		BM	100.000000000	W	N
CPOPT	I	2017/02/01	2017/02/01	9951826	5035129	US40054KU956	C	2028/08/01				USD	1000.00000	O	10		BM	100.000000000	W	N
CPOPT	I	2017/02/01	2017/02/01	9951827	5035129	US40054KU956	C	2028/11/01				USD	1000.00000	O	10		BM	100.000000000	W	N
CPOPT	I	2017/02/01	2017/02/01	9951828	5035129	US40054KU956	C	2029/02/01				USD	1000.00000	O	10		BM	100.000000000	W	N
CPOPT	I	2017/02/01	2017/02/01	9951829	5035129	US40054KU956	C	2029/05/01				USD	1000.00000	O	10		BM	100.000000000	W	N
CPOPT	I	2017/02/01	2017/02/01	9951830	5035129	US40054KU956	C	2029/08/01				USD	1000.00000	O	10		BM	100.000000000	W	N
CPOPT	I	2017/02/01	2017/02/01	9951831	5035129	US40054KU956	C	2029/11/01				USD	1000.00000	O	10		BM	100.000000000	W	N
CPOPT	I	2017/02/01	2017/02/01	9951832	5035129	US40054KU956	C	2030/02/01				USD	1000.00000	O	10		BM	100.000000000	W	N
CPOPT	I	2017/02/01	2017/02/01	9951833	5035129	US40054KU956	C	2030/05/01				USD	1000.00000	O	10		BM	100.000000000	W	N
CPOPT	I	2017/02/01	2017/02/01	9951834	5035129	US40054KU956	C	2030/08/01				USD	1000.00000	O	10		BM	100.000000000	W	N
CPOPT	I	2017/02/01	2017/02/01	9951835	5035129	US40054KU956	C	2030/11/01				USD	1000.00000	O	10		BM	100.000000000	W	N
CPOPT	I	2017/02/01	2017/02/01	9951836	5035129	US40054KU956	C	2031/02/01				USD	1000.00000	O	10		BM	100.000000000	W	N
CPOPT	I	2017/02/01	2017/02/01	9951837	5035129	US40054KU956	C	2031/05/01				USD	1000.00000	O	10		BM	100.000000000	W	N
CPOPT	I	2017/02/01	2017/02/01	9951838	5035129	US40054KU956	C	2031/08/01				USD	1000.00000	O	10		BM	100.000000000	W	N
CPOPT	I	2017/02/01	2017/02/01	9951839	5035129	US40054KU956	C	2031/11/01				USD	1000.00000	O	10		BM	100.000000000	W	N
CPOPT	I	2017/02/01	2017/02/01	9951840	5035175	US00206RDT68	C	2017/02/10	2056/08/31			USD		O			US		B	Y
CPOPT	I	2017/02/01	2017/02/01	9951841	5035175	US00206RDT68	C	2056/09/01	2057/02/28			USD	2000.00000	O			US	100.000000000	B	N
CPOPT	I	2017/02/01	2017/02/01	9951842	5032644	US40054KU535	C	2018/01/31				USD	1000.00000	O	10		BM	100.000000000	W	N
CPOPT	I	2017/02/01	2017/02/01	9951843	5032644	US40054KU535	C	2018/04/30				USD	1000.00000	O	10		BM	100.000000000	W	N
CPOPT	I	2017/02/01	2017/02/01	9951844	5032644	US40054KU535	C	2018/07/31				USD	1000.00000	O	10		BM	100.000000000	W	N
CPOPT	I	2017/02/01	2017/02/01	9951845	5032644	US40054KU535	C	2018/10/31				USD	1000.00000	O	10		BM	100.000000000	W	N
CPOPT	I	2017/02/01	2017/02/01	9951846	5032644	US40054KU535	C	2019/01/31				USD	1000.00000	O	10		BM	100.000000000	W	N
CPOPT	I	2017/02/01	2017/02/01	9951847	5032644	US40054KU535	C	2019/04/30				USD	1000.00000	O	10		BM	100.000000000	W	N
CPOPT	I	2017/02/01	2017/02/01	9951848	5032644	US40054KU535	C	2019/07/31				USD	1000.00000	O	10		BM	100.000000000	W	N
CPOPT	I	2017/02/01	2017/02/01	9951849	5032644	US40054KU535	C	2019/10/31				USD	1000.00000	O	10		BM	100.000000000	W	N
CPOPT	I	2017/02/01	2017/02/01	9951850	5032644	US40054KU535	C	2020/01/31				USD	1000.00000	O	10		BM	100.000000000	W	N
CPOPT	I	2017/02/01	2017/02/01	9951851	5032644	US40054KU535	C	2020/04/30				USD	1000.00000	O	10		BM	100.000000000	W	N
CPOPT	I	2017/02/01	2017/02/01	9951852	5032644	US40054KU535	C	2020/07/31				USD	1000.00000	O	10		BM	100.000000000	W	N
CPOPT	I	2017/02/01	2017/02/01	9951853	5032644	US40054KU535	C	2020/10/31				USD	1000.00000	O	10		BM	100.000000000	W	N
CPOPT	I	2017/02/01	2017/02/01	9951854	5032644	US40054KU535	C	2021/01/31				USD	1000.00000	O	10		BM	100.000000000	W	N
CPOPT	I	2017/02/01	2017/02/01	9951855	5032644	US40054KU535	C	2021/04/30				USD	1000.00000	O	10		BM	100.000000000	W	N
CPOPT	I	2017/02/01	2017/02/01	9951856	5032644	US40054KU535	C	2021/07/31				USD	1000.00000	O	10		BM	100.000000000	W	N
CPOPT	I	2017/02/01	2017/02/01	9951857	5032644	US40054KU535	C	2021/10/31				USD	1000.00000	O	10		BM	100.000000000	W	N
CPOPT	I	2017/02/01	2017/02/01	9951858	5032644	US40054KU535	C	2022/01/31				USD	1000.00000	O	10		BM	100.000000000	W	N
CPOPT	I	2017/02/01	2017/02/01	9951859	5032644	US40054KU535	C	2022/04/30				USD	1000.00000	O	10		BM	100.000000000	W	N
CPOPT	I	2017/02/01	2017/02/01	9951860	5032644	US40054KU535	C	2022/07/31				USD	1000.00000	O	10		BM	100.000000000	W	N
CPOPT	I	2017/02/01	2017/02/01	9951861	5032644	US40054KU535	C	2022/10/31				USD	1000.00000	O	10		BM	100.000000000	W	N
CPOPT	I	2017/02/01	2017/02/01	9951862	5032644	US40054KU535	C	2023/01/31				USD	1000.00000	O	10		BM	100.000000000	W	N
CPOPT	I	2017/02/01	2017/02/01	9951863	5032644	US40054KU535	C	2023/04/30				USD	1000.00000	O	10		BM	100.000000000	W	N
CPOPT	I	2017/02/01	2017/02/01	9951864	5032644	US40054KU535	C	2023/07/31				USD	1000.00000	O	10		BM	100.000000000	W	N
CPOPT	I	2017/02/01	2017/02/01	9951865	5032644	US40054KU535	C	2023/10/31				USD	1000.00000	O	10		BM	100.000000000	W	N
CPOPT	I	2017/02/01	2017/02/01	9951866	5032644	US40054KU535	C	2024/01/31				USD	1000.00000	O	10		BM	100.000000000	W	N
CPOPT	I	2017/02/01	2017/02/01	9951867	5032644	US40054KU535	C	2024/04/30				USD	1000.00000	O	10		BM	100.000000000	W	N
CPOPT	I	2017/02/01	2017/02/01	9951868	5032644	US40054KU535	C	2024/07/31				USD	1000.00000	O	10		BM	100.000000000	W	N
CPOPT	I	2017/02/01	2017/02/01	9951869	5032644	US40054KU535	C	2024/10/31				USD	1000.00000	O	10		BM	100.000000000	W	N
CPOPT	I	2017/02/01	2017/02/01	9951870	5032644	US40054KU535	C	2025/01/31				USD	1000.00000	O	10		BM	100.000000000	W	N
CPOPT	I	2017/02/01	2017/02/01	9951871	5032644	US40054KU535	C	2025/04/30				USD	1000.00000	O	10		BM	100.000000000	W	N
CPOPT	I	2017/02/01	2017/02/01	9951872	5032644	US40054KU535	C	2025/07/31				USD	1000.00000	O	10		BM	100.000000000	W	N
CPOPT	I	2017/02/01	2017/02/01	9951873	5032644	US40054KU535	C	2025/10/31				USD	1000.00000	O	10		BM	100.000000000	W	N
CPOPT	I	2017/02/01	2017/02/01	9951874	5032644	US40054KU535	C	2026/01/31				USD	1000.00000	O	10		BM	100.000000000	W	N
CPOPT	I	2017/02/01	2017/02/01	9951875	5032644	US40054KU535	C	2026/04/30				USD	1000.00000	O	10		BM	100.000000000	W	N
CPOPT	I	2017/02/01	2017/02/01	9951876	5032644	US40054KU535	C	2026/07/31				USD	1000.00000	O	10		BM	100.000000000	W	N
CPOPT	I	2017/02/01	2017/02/01	9951877	5032644	US40054KU535	C	2026/10/31				USD	1000.00000	O	10		BM	100.000000000	W	N
CPOPT	I	2017/02/01	2017/02/01	9951880	5035193	US00206RDN98	C	2017/02/10	2022/01/31			USD		O			US		B	Y
CPOPT	I	2017/02/01	2017/02/01	9951881	5035193	US00206RDN98	C	2022/02/01	2022/02/28			USD	2000.00000	O			US	100.000000000	B	N
CPOPT	I	2017/02/01	2017/02/01	9951882	5035203	US00206RDP47	C	2017/02/10	2023/12/31			USD		O			US		B	Y
CPOPT	I	2017/02/01	2017/02/01	9951883	5035203	US00206RDP47	C	2024/01/01	2024/02/29			USD	2000.00000	O			US	100.000000000	B	N
CPOPT	I	2017/02/01	2017/02/01	9951884	5035205	US38150AAA34	C	2019/01/31				USD	1000.00000	O	5		BM	100.000000000	W	N
CPOPT	I	2017/02/01	2017/02/01	9951885	5035205	US38150AAA34	C	2019/04/30				USD	1000.00000	O	5		BM	100.000000000	W	N
CPOPT	I	2017/02/01	2017/02/01	9951886	5035205	US38150AAA34	C	2019/07/31				USD	1000.00000	O	5		BM	100.000000000	W	N
CPOPT	I	2017/02/01	2017/02/01	9951887	5035205	US38150AAA34	C	2019/10/31				USD	1000.00000	O	5		BM	100.000000000	W	N
CPOPT	I	2017/02/01	2017/02/01	9951888	5035205	US38150AAA34	C	2020/01/31				USD	1000.00000	O	5		BM	100.000000000	W	N
CPOPT	I	2017/02/01	2017/02/01	9951889	5035205	US38150AAA34	C	2020/04/30				USD	1000.00000	O	5		BM	100.000000000	W	N
CPOPT	I	2017/02/01	2017/02/01	9951890	5035205	US38150AAA34	C	2020/07/31				USD	1000.00000	O	5		BM	100.000000000	W	N
CPOPT	I	2017/02/01	2017/02/01	9951891	5035205	US38150AAA34	C	2020/10/31				USD	1000.00000	O	5		BM	100.000000000	W	N
CPOPT	I	2017/02/01	2017/02/01	9951892	5035205	US38150AAA34	C	2021/01/31				USD	1000.00000	O	5		BM	100.000000000	W	N
CPOPT	I	2017/02/01	2017/02/01	9951893	5035205	US38150AAA34	C	2021/04/30				USD	1000.00000	O	5		BM	100.000000000	W	N
CPOPT	I	2017/02/01	2017/02/01	9951894	5035205	US38150AAA34	C	2021/07/31				USD	1000.00000	O	5		BM	100.000000000	W	N
CPOPT	I	2017/02/01	2017/02/01	9951895	5035205	US38150AAA34	C	2021/10/31				USD	1000.00000	O	5		BM	100.000000000	W	N
CPOPT	I	2017/02/01	2017/02/01	9951896	5035205	US38150AAA34	C	2022/01/31				USD	1000.00000	O	5		BM	100.000000000	W	N
CPOPT	I	2017/02/01	2017/02/01	9951897	5035205	US38150AAA34	C	2022/04/30				USD	1000.00000	O	5		BM	100.000000000	W	N
CPOPT	I	2017/02/01	2017/02/01	9951898	5035205	US38150AAA34	C	2022/07/31				USD	1000.00000	O	5		BM	100.000000000	W	N
CPOPT	I	2017/02/01	2017/02/01	9951899	5035205	US38150AAA34	C	2022/10/31				USD	1000.00000	O	5		BM	100.000000000	W	N
CPOPT	I	2017/02/01	2017/02/01	9951900	5035205	US38150AAA34	C	2023/01/31				USD	1000.00000	O	5		BM	100.000000000	W	N
CPOPT	I	2017/02/01	2017/02/01	9951901	5035205	US38150AAA34	C	2023/04/30				USD	1000.00000	O	5		BM	100.000000000	W	N
CPOPT	I	2017/02/01	2017/02/01	9951902	5035205	US38150AAA34	C	2023/07/31				USD	1000.00000	O	5		BM	100.000000000	W	N
CPOPT	I	2017/02/01	2017/02/01	9951903	5035205	US38150AAA34	C	2023/10/31				USD	1000.00000	O	5		BM	100.000000000	W	N
CPOPT	I	2017/02/01	2017/02/01	9951904	5035205	US38150AAA34	C	2024/01/31				USD	1000.00000	O	5		BM	100.000000000	W	N
CPOPT	I	2017/02/01	2017/02/01	9951905	5035205	US38150AAA34	C	2024/04/30				USD	1000.00000	O	5		BM	100.000000000	W	N
CPOPT	I	2017/02/01	2017/02/01	9951906	5035205	US38150AAA34	C	2024/07/31				USD	1000.00000	O	5		BM	100.000000000	W	N
CPOPT	I	2017/02/01	2017/02/01	9951907	5035205	US38150AAA34	C	2024/10/31				USD	1000.00000	O	5		BM	100.000000000	W	N
CPOPT	I	2017/02/01	2017/02/01	9951908	5035205	US38150AAA34	C	2025/01/31				USD	1000.00000	O	5		BM	100.000000000	W	N
CPOPT	I	2017/02/01	2017/02/01	9951909	5035205	US38150AAA34	C	2025/04/30				USD	1000.00000	O	5		BM	100.000000000	W	N
CPOPT	I	2017/02/01	2017/02/01	9951910	5035205	US38150AAA34	C	2025/07/31				USD	1000.00000	O	5		BM	100.000000000	W	N
CPOPT	I	2017/02/01	2017/02/01	9951911	5035205	US38150AAA34	C	2025/10/31				USD	1000.00000	O	5		BM	100.000000000	W	N
CPOPT	I	2017/02/01	2017/02/01	9951912	5035205	US38150AAA34	C	2026/01/31				USD	1000.00000	O	5		BM	100.000000000	W	N
CPOPT	I	2017/02/01	2017/02/01	9951913	5035205	US38150AAA34	C	2026/04/30				USD	1000.00000	O	5		BM	100.000000000	W	N
CPOPT	I	2017/02/01	2017/02/01	9951914	5035205	US38150AAA34	C	2026/07/31				USD	1000.00000	O	5		BM	100.000000000	W	N
CPOPT	I	2017/02/01	2017/02/01	9951915	5035205	US38150AAA34	C	2026/10/31				USD	1000.00000	O	5		BM	100.000000000	W	N
CPOPT	I	2017/02/01	2017/02/01	9951916	5035217	US00206RDQ20	C	2017/02/10	2026/11/30			USD		O			US		B	Y
CPOPT	I	2017/02/01	2017/02/01	9951917	5035217	US00206RDQ20	C	2026/12/01	2027/02/28			USD	2000.00000	O			US	100.000000000	B	N
CPOPT	I	2017/02/01	2017/02/01	9951918	5035218	USU46754AC83	C	2020/02/01				USD	1059.10000	O			BM	105.910000000		N
CPOPT	I	2017/02/01	2017/02/01	9951919	5035218	USU46754AC83	C	2021/02/01				USD	1039.40000	O			BM	103.940000000		N
CPOPT	I	2017/02/01	2017/02/01	9951920	5035218	USU46754AC83	C	2022/02/01				USD	1019.70000	O			BM	101.970000000		N
CPOPT	I	2017/02/01	2017/02/01	9951921	5035218	USU46754AC83	C	2023/02/01				USD	1000.00000	O			BM	100.000000000		N
CPOPT	I	2017/02/01	2017/02/01	9951922	5032545	US469815AH78	C	2020/02/01				USD	1059.10000	O			EU	105.910000000		N
CPOPT	I	2017/02/01	2017/02/01	9951923	5032545	US469815AH78	C	2021/02/01				USD	1039.40000	O			BM	103.940000000		N
CPOPT	I	2017/02/01	2017/02/01	9951924	5032545	US469815AH78	C	2022/02/01				USD	1019.70000	O			BM	101.970000000		N
CPOPT	I	2017/02/01	2017/02/01	9951925	5032545	US469815AH78	C	2023/02/01				USD	1000.00000	O			BM	100.000000000		N
CPOPT	I	2017/02/01	2017/02/01	9951926	5035227	US00206RDR03	C	2017/02/10	2036/08/31			USD		O			US		B	Y
CPOPT	I	2017/02/01	2017/02/01	9951927	5035227	US00206RDR03	C	2036/09/01	2037/02/28			USD	2000.00000	O			US	100.000000000	B	N
CPOPT	I	2017/02/01	2017/02/01	9951928	5035230	US38150AAE55	C	2018/01/31				USD	1000.00000	O	5		BM	100.000000000	W	N
CPOPT	I	2017/02/01	2017/02/01	9951929	5035230	US38150AAE55	C	2018/04/30				USD	1000.00000	O	5		BM	100.000000000	W	N
CPOPT	I	2017/02/01	2017/02/01	9951930	5035230	US38150AAE55	C	2018/07/31				USD	1000.00000	O	5		BM	100.000000000	W	N
CPOPT	I	2017/02/01	2017/02/01	9951931	5035230	US38150AAE55	C	2018/10/31				USD	1000.00000	O	5		BM	100.000000000	W	N
CPOPT	I	2017/02/01	2017/02/01	9951932	5035230	US38150AAE55	C	2019/01/31				USD	1000.00000	O	5		BM	100.000000000	W	N
CPOPT	I	2017/02/01	2017/02/01	9951933	5035230	US38150AAE55	C	2019/04/30				USD	1000.00000	O	5		BM	100.000000000	W	N
CPOPT	I	2017/02/01	2017/02/01	9951934	5035230	US38150AAE55	C	2019/07/31				USD	1000.00000	O	5		BM	100.000000000	W	N
CPOPT	I	2017/02/01	2017/02/01	9951935	5035230	US38150AAE55	C	2019/10/31				USD	1000.00000	O	5		BM	100.000000000	W	N
CPOPT	I	2017/02/01	2017/02/01	9951936	5032623	US40054KTJ50	C	2018/01/30				USD	1000.00000	O	10		BM	100.000000000	W	N
CPOPT	I	2017/02/01	2017/02/01	9951937	5032623	US40054KTJ50	C	2018/04/30				USD	1000.00000	O	10		BM	100.000000000	W	N
CPOPT	I	2017/02/01	2017/02/01	9951938	5032623	US40054KTJ50	C	2018/07/30				USD	1000.00000	O	10		BM	100.000000000	W	N
CPOPT	I	2017/02/01	2017/02/01	9951939	5032623	US40054KTJ50	C	2018/10/30				USD	1000.00000	O	10		BM	100.000000000	W	N
CPOPT	I	2017/02/01	2017/02/01	9951940	5032623	US40054KTJ50	C	2019/01/30				USD	1000.00000	O	10		BM	100.000000000	W	N
CPOPT	I	2017/02/01	2017/02/01	9951941	5032623	US40054KTJ50	C	2019/04/30				USD	1000.00000	O	10		BM	100.000000000	W	N
CPOPT	I	2017/02/01	2017/02/01	9951942	5032623	US40054KTJ50	C	2019/07/30				USD	1000.00000	O	10		BM	100.000000000	W	N
CPOPT	I	2017/02/01	2017/02/01	9951943	5032623	US40054KTJ50	C	2019/10/30				USD	1000.00000	O	10		BM	100.000000000	W	N
CPOPT	I	2017/02/01	2017/02/01	9951944	5032623	US40054KTJ50	C	2020/01/30				USD	1000.00000	O	10		BM	100.000000000	W	N
CPOPT	I	2017/02/01	2017/02/01	9951945	5032623	US40054KTJ50	C	2020/04/30				USD	1000.00000	O	10		BM	100.000000000	W	N
CPOPT	I	2017/02/01	2017/02/01	9951946	5032623	US40054KTJ50	C	2020/07/30				USD	1000.00000	O	10		BM	100.000000000	W	N
CPOPT	I	2017/02/01	2017/02/01	9951947	5032623	US40054KTJ50	C	2020/10/30				USD	1000.00000	O	10		BM	100.000000000	W	N
CPOPT	I	2017/02/01	2017/02/01	9951948	5032623	US40054KTJ50	C	2021/01/30				USD	1000.00000	O	10		BM	100.000000000	W	N
CPOPT	I	2017/02/01	2017/02/01	9951949	5032623	US40054KTJ50	C	2021/04/30				USD	1000.00000	O	10		BM	100.000000000	W	N
CPOPT	I	2017/02/01	2017/02/01	9951950	5032623	US40054KTJ50	C	2021/07/30				USD	1000.00000	O	10		BM	100.000000000	W	N
CPOPT	I	2017/02/01	2017/02/01	9951951	5032623	US40054KTJ50	C	2021/10/30				USD	1000.00000	O	10		BM	100.000000000	W	N
CPOPT	I	2017/02/01	2017/02/01	9951952	5032623	US40054KTJ50	C	2022/01/30				USD	1000.00000	O	10		BM	100.000000000	W	N
CPOPT	I	2017/02/01	2017/02/01	9951953	5032623	US40054KTJ50	C	2022/04/30				USD	1000.00000	O	10		BM	100.000000000	W	N
CPOPT	I	2017/02/01	2017/02/01	9951954	5032623	US40054KTJ50	C	2022/07/30				USD	1000.00000	O	10		BM	100.000000000	W	N
CPOPT	I	2017/02/01	2017/02/01	9951955	5032623	US40054KTJ50	C	2022/10/30				USD	1000.00000	O	10		BM	100.000000000	W	N
CPOPT	I	2017/02/01	2017/02/01	9951956	5032623	US40054KTJ50	C	2023/01/30				USD	1000.00000	O	10		BM	100.000000000	W	N
CPOPT	I	2017/02/01	2017/02/01	9951957	5032623	US40054KTJ50	C	2023/04/30				USD	1000.00000	O	10		BM	100.000000000	W	N
CPOPT	I	2017/02/01	2017/02/01	9951958	5032623	US40054KTJ50	C	2023/07/30				USD	1000.00000	O	10		BM	100.000000000	W	N
CPOPT	I	2017/02/01	2017/02/01	9951959	5032623	US40054KTJ50	C	2023/10/30				USD	1000.00000	O	10		BM	100.000000000	W	N
CPOPT	I	2017/02/01	2017/02/01	9951960	5032623	US40054KTJ50	C	2024/01/30				USD	1000.00000	O	10		BM	100.000000000	W	N
CPOPT	I	2017/02/01	2017/02/01	9951961	5032623	US40054KTJ50	C	2024/04/30				USD	1000.00000	O	10		BM	100.000000000	W	N
CPOPT	I	2017/02/01	2017/02/01	9951962	5032623	US40054KTJ50	C	2024/07/30				USD	1000.00000	O	10		BM	100.000000000	W	N
CPOPT	I	2017/02/01	2017/02/01	9951963	5032623	US40054KTJ50	C	2024/10/30				USD	1000.00000	O	10		BM	100.000000000	W	N
CPOPT	I	2017/02/01	2017/02/01	9951964	5032623	US40054KTJ50	C	2025/01/30				USD	1000.00000	O	10		BM	100.000000000	W	N
CPOPT	I	2017/02/01	2017/02/01	9951965	5032623	US40054KTJ50	C	2025/04/30				USD	1000.00000	O	10		BM	100.000000000	W	N
CPOPT	I	2017/02/01	2017/02/01	9951966	5032623	US40054KTJ50	C	2025/07/30				USD	1000.00000	O	10		BM	100.000000000	W	N
CPOPT	I	2017/02/01	2017/02/01	9951968	5032623	US40054KTJ50	C	2025/10/30				USD	1000.00000	O	10		BM	100.000000000	W	N
CPOPT	I	2017/02/01	2017/02/01	9951969	5032623	US40054KTJ50	C	2026/01/30				USD	1000.00000	O	10		BM	100.000000000	W	N
CPOPT	I	2017/02/01	2017/02/01	9951967	5032860	USU9830QAA41	C	2020/02/01				USD	1051.60000	O			BM	105.160000000		N
CPOPT	I	2017/02/01	2017/02/01	9951971	5032860	USU9830QAA41	C	2021/02/01				USD	1034.40000	O			BM	103.440000000		N
CPOPT	I	2017/02/01	2017/02/01	9951972	5032860	USU9830QAA41	C	2022/02/01				USD	1017.20000	O			BM	101.720000000		N
CPOPT	I	2017/02/01	2017/02/01	9951973	5032860	USU9830QAA41	C	2023/02/01				USD	1000.00000	O			BM	100.000000000		N
CPOPT	I	2017/02/01	2017/02/01	9951970	5032623	US40054KTJ50	C	2026/04/30				USD	1000.00000	O	10		BM	100.000000000	W	N
CPOPT	I	2017/02/01	2017/02/01	9951974	5032623	US40054KTJ50	C	2026/07/30				USD	1000.00000	O	10		BM	100.000000000	W	N
CPOPT	I	2017/02/01	2017/02/01	9951975	5032623	US40054KTJ50	C	2026/10/30				USD	1000.00000	O	10		BM	100.000000000	W	N
CPOPT	I	2017/02/01	2017/02/01	9951976	5032623	US40054KTJ50	C	2027/01/30				USD	1000.00000	O	10		BM	100.000000000	W	N
CPOPT	I	2017/02/01	2017/02/01	9951977	5032673	US96812TAA07	C	2020/02/01				USD	1051.60000	O			BM	105.160000000		N
CPOPT	I	2017/02/01	2017/02/01	9951978	5032673	US96812TAA07	C	2021/02/01				USD	1034.40000	O			BM	103.440000000		N
CPOPT	I	2017/02/01	2017/02/01	9951979	5032673	US96812TAA07	C	2022/02/01				USD	1017.20000	O			BM	101.720000000		N
CPOPT	I	2017/02/01	2017/02/01	9951980	5032673	US96812TAA07	C	2023/02/01				USD	1000.00000	O			BM	100.000000000		N
CPOPT	I	2017/02/01	2017/02/01	9951982	5032635	US40054KTK24	C	2018/01/31				USD	1000.00000	O	10		BM	100.000000000	W	N
CPOPT	I	2017/02/01	2017/02/01	9951984	5032635	US40054KTK24	C	2018/04/30				USD	1000.00000	O	10		BM	100.000000000	W	N
CPOPT	I	2017/02/01	2017/02/01	9951985	5032635	US40054KTK24	C	2018/07/31				USD	1000.00000	O	10		BM	100.000000000	W	N
CPOPT	I	2017/02/01	2017/02/01	9951986	5032635	US40054KTK24	C	2018/10/31				USD	1000.00000	O	10		BM	100.000000000	W	N
CPOPT	I	2017/02/01	2017/02/01	9951988	5032635	US40054KTK24	C	2019/01/31				USD	1000.00000	O	10		BM	100.000000000	W	N
CPOPT	I	2017/02/01	2017/02/01	9951989	5032635	US40054KTK24	C	2019/04/30				USD	1000.00000	O	10		BM	100.000000000	W	N
CPOPT	I	2017/02/01	2017/02/01	9951990	5032635	US40054KTK24	C	2019/07/31				USD	1000.00000	O	10		BM	100.000000000	W	N
CPOPT	I	2017/02/01	2017/02/01	9951991	5032635	US40054KTK24	C	2019/10/31				USD	1000.00000	O	10		BM	100.000000000	W	N
CPOPT	I	2017/02/01	2017/02/01	9951992	5032635	US40054KTK24	C	2020/01/31				USD	1000.00000	O	10		BM	100.000000000	W	N
CPOPT	I	2017/02/01	2017/02/01	9951993	5032635	US40054KTK24	C	2020/04/30				USD	1000.00000	O	10		BM	100.000000000	W	N
CPOPT	I	2017/02/01	2017/02/01	9951994	5032635	US40054KTK24	C	2020/07/31				USD	1000.00000	O	10		BM	100.000000000	W	N
CPOPT	I	2017/02/01	2017/02/01	9951995	5032635	US40054KTK24	C	2020/10/31				USD	1000.00000	O	10		BM	100.000000000	W	N
CPOPT	I	2017/02/01	2017/02/01	9951996	5035308	US38150AAJ43	C	2018/01/31				USD	1000.00000	O	5		BM	100.000000000	W	N
CPOPT	I	2017/02/01	2017/02/01	9951997	5035308	US38150AAJ43	C	2018/04/30				USD	1000.00000	O	5		BM	100.000000000	W	N
CPOPT	I	2017/02/01	2017/02/01	9951998	5035308	US38150AAJ43	C	2018/07/31				USD	1000.00000	O	5		BM	100.000000000	W	N
CPOPT	I	2017/02/01	2017/02/01	9951999	5035308	US38150AAJ43	C	2018/10/31				USD	1000.00000	O	5		BM	100.000000000	W	N
CPOPT	I	2017/02/01	2017/02/01	9952000	5035308	US38150AAJ43	C	2019/01/31				USD	1000.00000	O	5		BM	100.000000000	W	N
CPOPT	I	2017/02/01	2017/02/01	9952001	5035308	US38150AAJ43	C	2019/04/30				USD	1000.00000	O	5		BM	100.000000000	W	N
CPOPT	I	2017/02/01	2017/02/01	9952002	5035308	US38150AAJ43	C	2019/07/31				USD	1000.00000	O	5		BM	100.000000000	W	N
CPOPT	I	2017/02/01	2017/02/01	9952003	5035308	US38150AAJ43	C	2019/10/31				USD	1000.00000	O	5		BM	100.000000000	W	N
CPOPT	I	2017/02/01	2017/02/01	9952004	5035308	US38150AAJ43	C	2020/01/31				USD	1000.00000	O	5		BM	100.000000000	W	N
CPOPT	I	2017/02/01	2017/02/01	9952005	5035308	US38150AAJ43	C	2020/04/30				USD	1000.00000	O	5		BM	100.000000000	W	N
CPOPT	I	2017/02/01	2017/02/01	9952006	5035308	US38150AAJ43	C	2020/07/31				USD	1000.00000	O	5		BM	100.000000000	W	N
CPOPT	I	2017/02/01	2017/02/01	9952007	5035308	US38150AAJ43	C	2020/10/31				USD	1000.00000	O	5		BM	100.000000000	W	N
CPOPT	I	2017/02/01	2017/02/01	9952008	5035308	US38150AAJ43	C	2021/01/31				USD	1000.00000	O	5		BM	100.000000000	W	N
CPOPT	I	2017/02/01	2017/02/01	9952009	5035308	US38150AAJ43	C	2021/04/30				USD	1000.00000	O	5		BM	100.000000000	W	N
CPOPT	I	2017/02/01	2017/02/01	9952010	5035308	US38150AAJ43	C	2021/07/31				USD	1000.00000	O	5		BM	100.000000000	W	N
CPOPT	I	2017/02/01	2017/02/01	9952011	5035308	US38150AAJ43	C	2021/10/31				USD	1000.00000	O	5		BM	100.000000000	W	N
CPOPT	I	2017/02/01	2017/02/01	9952012	5035308	US38150AAJ43	C	2022/01/31				USD	1000.00000	O	5		BM	100.000000000	W	N
CPOPT	I	2017/02/01	2017/02/01	9952013	5035308	US38150AAJ43	C	2022/04/30				USD	1000.00000	O	5		BM	100.000000000	W	N
CPOPT	I	2017/02/01	2017/02/01	9952014	5035308	US38150AAJ43	C	2022/07/31				USD	1000.00000	O	5		BM	100.000000000	W	N
CPOPT	I	2017/02/01	2017/02/01	9952015	5035308	US38150AAJ43	C	2022/10/31				USD	1000.00000	O	5		BM	100.000000000	W	N
CPOPT	I	2017/02/01	2017/02/01	9952016	5035308	US38150AAJ43	C	2023/01/31				USD	1000.00000	O	5		BM	100.000000000	W	N
CPOPT	I	2017/02/01	2017/02/01	9952017	5035308	US38150AAJ43	C	2023/04/30				USD	1000.00000	O	5		BM	100.000000000	W	N
CPOPT	I	2017/02/01	2017/02/01	9952018	5035308	US38150AAJ43	C	2023/07/31				USD	1000.00000	O	5		BM	100.000000000	W	N
CPOPT	I	2017/02/01	2017/02/01	9952019	5035308	US38150AAJ43	C	2023/10/31				USD	1000.00000	O	5		BM	100.000000000	W	N
CPOPT	I	2017/02/01	2017/02/01	9952020	5035308	US38150AAJ43	C	2024/01/31				USD	1000.00000	O	5		BM	100.000000000	W	N
CPOPT	I	2017/02/01	2017/02/01	9952021	5035308	US38150AAJ43	C	2024/04/30				USD	1000.00000	O	5		BM	100.000000000	W	N
CPOPT	I	2017/02/01	2017/02/01	9952022	5035308	US38150AAJ43	C	2024/07/31				USD	1000.00000	O	5		BM	100.000000000	W	N
CPOPT	I	2017/02/01	2017/02/01	9952023	5035308	US38150AAJ43	C	2024/10/31				USD	1000.00000	O	5		BM	100.000000000	W	N
CPOPT	I	2017/02/01	2017/02/01	9952024	5035308	US38150AAJ43	C	2025/01/31				USD	1000.00000	O	5		BM	100.000000000	W	N
CPOPT	I	2017/02/01	2017/02/01	9952025	5035308	US38150AAJ43	C	2025/04/30				USD	1000.00000	O	5		BM	100.000000000	W	N
CPOPT	I	2017/02/01	2017/02/01	9952026	5035308	US38150AAJ43	C	2025/07/31				USD	1000.00000	O	5		BM	100.000000000	W	N
CPOPT	I	2017/02/01	2017/02/01	9952027	5035308	US38150AAJ43	C	2025/10/31				USD	1000.00000	O	5		BM	100.000000000	W	N
CPOPT	I	2017/02/01	2017/02/01	9952028	5035308	US38150AAJ43	C	2026/01/31				USD	1000.00000	O	5		BM	100.000000000	W	N
CPOPT	I	2017/02/01	2017/02/01	9952029	5035308	US38150AAJ43	C	2026/04/30				USD	1000.00000	O	5		BM	100.000000000	W	N
CPOPT	I	2017/02/01	2017/02/01	9952030	5035308	US38150AAJ43	C	2026/07/31				USD	1000.00000	O	5		BM	100.000000000	W	N
CPOPT	I	2017/02/01	2017/02/01	9952031	5035308	US38150AAJ43	C	2026/10/31				USD	1000.00000	O	5		BM	100.000000000	W	N
CPOPT	I	2017/02/01	2017/02/01	9952032	5035308	US38150AAJ43	C	2027/01/31				USD	1000.00000	O	5		BM	100.000000000	W	N
CPOPT	I	2017/02/01	2017/02/01	9952033	5035308	US38150AAJ43	C	2027/04/30				USD	1000.00000	O	5		BM	100.000000000	W	N
CPOPT	I	2017/02/01	2017/02/01	9952034	5035308	US38150AAJ43	C	2027/07/31				USD	1000.00000	O	5		BM	100.000000000	W	N
CPOPT	I	2017/02/01	2017/02/01	9952035	5035308	US38150AAJ43	C	2027/10/31				USD	1000.00000	O	5		BM	100.000000000	W	N
CPOPT	I	2017/02/01	2017/02/01	9952036	5035308	US38150AAJ43	C	2028/01/31				USD	1000.00000	O	5		BM	100.000000000	W	N
CPOPT	I	2017/02/01	2017/02/01	9952037	5035308	US38150AAJ43	C	2028/04/30				USD	1000.00000	O	5		BM	100.000000000	W	N
CPOPT	I	2017/02/01	2017/02/01	9952038	5035308	US38150AAJ43	C	2028/07/31				USD	1000.00000	O	5		BM	100.000000000	W	N
CPOPT	I	2017/02/01	2017/02/01	9952039	5035308	US38150AAJ43	C	2028/10/31				USD	1000.00000	O	5		BM	100.000000000	W	N
CPOPT	I	2017/02/01	2017/02/01	9952040	5035308	US38150AAJ43	C	2029/01/31				USD	1000.00000	O	5		BM	100.000000000	W	N
CPOPT	I	2017/02/01	2017/02/01	9952041	5035308	US38150AAJ43	C	2029/04/30				USD	1000.00000	O	5		BM	100.000000000	W	N
CPOPT	I	2017/02/01	2017/02/01	9952042	5035308	US38150AAJ43	C	2029/07/31				USD	1000.00000	O	5		BM	100.000000000	W	N
CPOPT	I	2017/02/01	2017/02/01	9952043	5035308	US38150AAJ43	C	2029/10/31				USD	1000.00000	O	5		BM	100.000000000	W	N
CPOPT	I	2017/02/01	2017/02/01	9952044	5035308	US38150AAJ43	C	2030/01/31				USD	1000.00000	O	5		BM	100.000000000	W	N
CPOPT	I	2017/02/01	2017/02/01	9952045	5035308	US38150AAJ43	C	2030/04/30				USD	1000.00000	O	5		BM	100.000000000	W	N
CPOPT	I	2017/02/01	2017/02/01	9952046	5035308	US38150AAJ43	C	2030/07/31				USD	1000.00000	O	5		BM	100.000000000	W	N
CPOPT	I	2017/02/01	2017/02/01	9952047	5035308	US38150AAJ43	C	2030/10/31				USD	1000.00000	O	5		BM	100.000000000	W	N
CPOPT	I	2017/02/01	2017/02/01	9952048	5035308	US38150AAJ43	C	2031/01/31				USD	1000.00000	O	5		BM	100.000000000	W	N
CPOPT	I	2017/02/01	2017/02/01	9952049	5035308	US38150AAJ43	C	2031/04/30				USD	1000.00000	O	5		BM	100.000000000	W	N
CPOPT	I	2017/02/01	2017/02/01	9952050	5035308	US38150AAJ43	C	2031/07/31				USD	1000.00000	O	5		BM	100.000000000	W	N
CPOPT	I	2017/02/01	2017/02/01	9952051	5035308	US38150AAJ43	C	2031/10/31				USD	1000.00000	O	5		BM	100.000000000	W	N
CPOPT	U	2017/01/31	2017/02/01	9950434	5034126	US06744M3152	C	2017/11/03				USD	10.00000	O			KO	100.000000000	W	N
CPOPT	U	2017/01/31	2017/02/01	9950664	5034182	US594918BX11	C	2023/12/06	2024/02/05			USD	1000.00000	O	30	60	US	100.000000000	B	N
CPOPT	U	2017/01/31	2017/02/01	9951038	5034176	US594918BZ68	C	2017/02/07	2036/08/05			USD		O	30	60	US		B	Y
CPOPT	U	2017/01/31	2017/02/01	9951039	5034176	US594918BZ68	C	2036/08/06	2037/02/05			USD	1000.00000	O	30	60	US	100.000000000	B	N
CPOPT	U	2017/01/31	2017/02/01	9951040	5034182	US594918BX11	C	2017/02/07	2023/12/05			USD		O	30	60	US		B	Y
CPOPT	U	2017/01/31	2017/02/01	9951041	5034179	US594918BY93	C	2017/02/07	2026/11/05			USD		O	30	60	US		B	Y
CPOPT	U	2017/01/31	2017/02/01	9951042	5034179	US594918BY93	C	2026/11/06	2027/02/05			USD	1000.00000	O	30	60	US	100.000000000	B	N
CPOPT	U	2017/01/31	2017/02/01	9951051	5034186	US594918BW38	C	2017/02/07	2022/01/05			USD		O	30	60	US		B	Y
CPOPT	U	2017/01/31	2017/02/01	9951052	5034186	US594918BW38	C	2022/01/06	2022/02/05			USD	1000.00000	O	30	60	US	100.000000000	B	N
CPOPT	U	2017/01/31	2017/02/01	9951055	5034149	US594918CA09	C	2017/02/07	2046/08/05			USD		O	30	60	US		B	Y
CPOPT	U	2017/01/31	2017/02/01	9951056	5034149	US594918CA09	C	2046/08/06	2047/02/05			USD	1000.00000	O	30	60	US	100.000000000	B	N
CPOPT	U	2017/01/31	2017/02/01	9951057	5034141	US594918CB81	C	2017/02/07	2056/08/05			USD		O	30	60	US		B	Y
CPOPT	U	2017/01/31	2017/02/01	9951058	5034141	US594918CB81	C	2056/08/06	2057/02/05			USD	1000.00000	O	30	60	US	100.000000000	B	N
CPOPT	I	2017/02/01	2017/02/01	9952071	5035274	US06406RAA59	C	2022/01/07	2022/02/06			USD	1000.00000	O	10	60	US	100.000000000	B	N
CPOPT	I	2017/02/01	2017/02/01	9952079	5035514	USU58839AE85	C	2020/02/01				USD		O			BM	103.250000000		N
CPOPT	I	2017/02/01	2017/02/01	9952080	5035514	USU58839AE85	C	2021/02/01				USD		O			BM	101.625000000		N
CPOPT	I	2017/02/01	2017/02/01	9952081	5035514	USU58839AE85	C	2022/02/01				USD		O			BM	100.000000000		N
CPOPT	I	2017/02/01	2017/02/01	9952173	5035270	US06406RAB33	C	2027/02/07				USD	1000.00000	O	10	60	EU	100.000000000	W	N
EDI_ENDOFFILE
